<?xml version="1.0" encoding="utf-8"?>
<!-- Generator: Adobe Illustrator 21.1.0, SVG Export Plug-In . SVG Version: 6.00 Build 0)  -->
<svg version="1.1" id="Layer_1" xmlns="http://www.w3.org/2000/svg" xmlns:xlink="http://www.w3.org/1999/xlink" x="0px" y="0px"
	 viewBox="0 0 1366 768" style="enable-background:new 0 0 1366 768;" xml:space="preserve">
<style type="text/css">
	.st0{fill:#F9ED5A;}
	.st1{fill:#F94B4B;}
	.st2{fill:#FFFFFF;}
	.st3{fill:#050505;}
	.st4{fill:none;stroke:#000000;stroke-width:6;stroke-miterlimit:10;}
	.st5{fill:none;stroke:#000000;stroke-width:6;stroke-linecap:round;stroke-linejoin:round;}
	.st6{fill:none;stroke:#F94B4B;stroke-miterlimit:10;}
	.st7{fill:#F9ED5A;stroke:#000000;stroke-width:5;stroke-miterlimit:10;}
	.st8{fill:#020202;}
	.st9{fill:#070707;}
	.st10{fill:none;stroke:#000000;stroke-width:5;stroke-miterlimit:10;}
	.st11{fill:#F9ED5A;stroke:#000000;stroke-width:6;stroke-miterlimit:10;}
	.st12{fill:#FFFFFF;stroke:#020202;stroke-width:6;stroke-miterlimit:10;}
	.st13{fill:none;stroke:#020202;stroke-width:6;stroke-miterlimit:10;}
	.st14{stroke:#020202;stroke-width:6;stroke-miterlimit:10;}
	.st15{stroke:#000000;stroke-width:6;stroke-miterlimit:10;}
	.st16{fill:#FCFCFC;}
	.st17{fill:#FF0000;}
	.st18{fill:#020202;stroke:#000000;stroke-width:6;stroke-miterlimit:10;}
	.st19{fill:#FCFCFC;stroke:#000000;stroke-width:6;stroke-miterlimit:10;}
	.st20{fill:none;stroke:#000000;stroke-width:16;stroke-miterlimit:10;}
	.st21{fill:#FFFFFF;stroke:#000000;stroke-width:6;stroke-miterlimit:10;}
	.st22{fill:#050505;stroke:#000000;stroke-width:6;stroke-miterlimit:10;}
	.st23{fill:#020202;stroke:#0C0C0C;stroke-width:2;stroke-miterlimit:10;}
	.st24{fill:#FCFCFC;stroke:#000000;stroke-miterlimit:10;}
	.st25{fill:#F90606;}
	.st26{fill:#F90000;stroke:#000000;stroke-width:5;stroke-miterlimit:10;}
	.st27{stroke:#000000;stroke-width:2;stroke-miterlimit:10;}
	.st28{fill:#FFFFFF;stroke:#F708BF;stroke-miterlimit:10;}
	.st29{fill:#0392F4;}
	.st30{fill:none;stroke:#050505;stroke-width:6;stroke-miterlimit:10;}
	.st31{fill:#F7F8F9;}
	.st32{fill:none;stroke:#000000;stroke-width:3;stroke-miterlimit:10;}
	.st33{fill:#7C7C7C;}
	.st34{fill:#050505;stroke:#050505;stroke-width:6;stroke-miterlimit:10;}
	.st35{fill:#F9F9F7;}
	.st36{fill:#F9F9F7;stroke:#000000;stroke-width:6;stroke-miterlimit:10;}
	.st37{fill:#FFFFFF;stroke:#000000;stroke-width:7;stroke-miterlimit:10;}
	.st38{fill:none;stroke:#000000;stroke-width:11;stroke-miterlimit:10;}
	.st39{fill:none;stroke:#000000;stroke-width:7;stroke-miterlimit:10;}
	.st40{fill:#FFFDFD;}
	.st41{fill:#050505;stroke:#000000;stroke-width:7;stroke-miterlimit:10;}
	.st42{fill:none;stroke:#000000;stroke-width:4;stroke-miterlimit:10;}
	.st43{fill:none;stroke:#070707;stroke-width:5;stroke-miterlimit:10;}
	.st44{fill:#070707;stroke:#000000;stroke-width:6;stroke-miterlimit:10;}
	.st45{fill:#0C0C0C;}
	.st46{stroke:#000000;stroke-linecap:round;stroke-miterlimit:10;}
	.st47{fill:none;stroke:#020202;stroke-width:4;stroke-miterlimit:10;}
	.st48{fill:none;stroke:#020202;stroke-width:5;stroke-miterlimit:10;}
	.st49{fill:#0A0A0A;}
	.st50{fill:#F9F9F9;}
</style>
<g id="Layer_22">
</g>
<g>
	<path class="st0" d="M1308.2,672L1308.2,672c57-132.4-56.9-164.1-89.4-50.8h-0.1c10.5-135.5-117.7-105-105.4,7.2
		C1139.4,620.4,1225.3,608.6,1308.2,672z M1158.4,779.5c10,8,22.2,14.2,35.9,17.6c26,6.6,51.7,2,70.3-10.5
		c12.9-8.6,22.4-21,26.2-36.1c3.8-14.8,1.4-30-5.6-43.6c-10.4-20.1-31-36.7-57.3-43.3c-35-8.8-69.5,2.5-86.8,26.1
		c-4.5,6.1-7.8,13-9.7,20.5C1125.1,735.6,1136.4,761.9,1158.4,779.5z M1364.1,687.4c-21.7,86.1-108.7,138.2-194.4,116.5
		c-85.6-21.7-137.5-109.1-115.8-195.1c21.7-86.1,108.7-138.2,194.4-116.5C1333.9,514,1385.8,601.4,1364.1,687.4z"/>
	<path class="st1" d="M1209.9,698.5c-21.7-1.7-41.6,10.9-46.6,30.9c-4.3,16.9,3.3,34.2,17.7,44.4c-12.4,0.1-20.6,1.9-22.7,5.6
		c-22-17.6-33.3-43.9-26.9-69.2c1.9-7.6,5.3-14.5,9.7-20.5c11.9-7.5,72.4-0.4,143.4,17.6l0.7-0.4c7,13.6,9.3,28.7,5.6,43.6
		c-3.8,15.1-13.3,27.5-26.2,36.1l-0.1-0.1c-12.1-3.1-23.9-5.6-34.9-7.6c11.3-5.1,20.1-14.6,23.2-26.9c5.1-20-6.5-40.6-26.5-49.4
		c-2.5-1.1-5.2-2-8-2.8C1215.6,699.2,1212.8,698.7,1209.9,698.5z"/>
	<path class="st2" d="M1218.8,621.1L1218.8,621.1c32.6-113.2,146.5-81.6,89.6,50.7l-0.1,0.1c-82.9-63.4-168.8-51.5-194.8-43.7
		C1101,516.1,1229.3,485.6,1218.8,621.1z M1280.5,629c2-7.9-2.8-15.8-10.6-17.8c-7.9-2-15.8,2.8-17.8,10.6
		c-2,7.9,2.8,15.8,10.6,17.8C1270.5,641.6,1278.5,636.9,1280.5,629z M1182.1,604c2-7.9-2.8-15.8-10.6-17.8
		c-7.9-2-15.8,2.8-17.8,10.6s2.8,15.8,10.6,17.8C1172.1,616.7,1180.1,611.9,1182.1,604z"/>
	<path class="st2" d="M1285.3,706.9l-0.7,0.4c-71-17.9-131.5-25.1-143.4-17.6c17.4-23.5,51.9-34.9,86.8-26.1
		C1254.4,670.2,1275,686.8,1285.3,706.9z"/>
	<path class="st2" d="M1264.6,786.5L1264.6,786.5c-18.6,12.5-44.3,17.1-70.3,10.6c-13.7-3.5-25.9-9.6-35.9-17.6
		c2.1-3.7,10.3-5.6,22.7-5.6c0.5,0.4,1,0.7,1.5,1c-0.6,0-1.2,0-1.8,0c-1.8,0-3.5,1.7-3.4,3.6c0.1,1.6,1.1,2.8,2.5,3.3
		c0.1,0.2,0.2,0.3,0.3,0.5c0.4,0.7,1.3,1.4,2.1,1.6c0,0,0,0,0.1,0l0,0c0.1,0,0.2,0.1,0.3,0.1c1.1,0.3,2.1,0.1,2.8-0.5
		c13.4,1.7,26.7,5.7,40.3,4.8c0.5,0.1,1.1,0,1.6-0.2c0.6-0.1,1.1-0.3,1.6-0.7c1.4-0.2,2.7-1.2,3-2.6c0.4-1.9-0.6-3.8-2.5-4.2
		c-0.8-0.2-1.6-0.3-2.4-0.4l0,0c0.9-0.4,1.8-0.7,2.7-1.1C1240.7,780.9,1252.4,783.5,1264.6,786.5z"/>
	<path d="M1252.9,752.1c-3.1,12.3-11.9,21.8-23.2,26.9c-19.2-3.5-36.1-5.2-48.6-5.1c-14.4-10.3-22-27.6-17.7-44.4
		c5-20,25-32.6,46.6-30.9c0,1.6,0.2,12.8-5.1,24.9c-2.8,1.3-5,3.8-5.8,6.9c-1.5,5.9,2.5,11.9,8.8,13.5s12.6-1.8,14.1-7.7
		c0.7-3,0.1-6-1.5-8.4c-0.5-13.3,6.2-23.5,6.1-25.1C1246.4,711.4,1258,732.1,1252.9,752.1z"/>
	
		<ellipse transform="matrix(0.245 -0.9695 0.9695 0.245 349.6296 1699.8105)" class="st3" cx="1266.2" cy="625.4" rx="14.7" ry="14.7"/>
	<path class="st2" d="M1229.7,779c-0.9,0.4-1.8,0.8-2.7,1.1l0,0c-0.8-0.1-1.6-0.1-2.5,0c-3.6-1.1-7.3-1.9-11.1-1.7
		c-1.6,0.1-2.6,1-3,2.1c-7.5-1-14.9-2.7-22.4-3.8c-0.6-1.2-1.8-2.1-3.2-2c-0.7,0.1-1.5,0.1-2.2,0.1c-0.5-0.3-1-0.7-1.5-1
		C1193.6,773.8,1210.5,775.5,1229.7,779z"/>
	<path class="st1" d="M1220.4,727.8c1.6,2.5,2.2,5.5,1.5,8.4c-1.5,5.9-7.8,9.3-14.1,7.7c-6.3-1.6-10.3-7.7-8.8-13.5
		c0.8-3.1,3-5.6,5.8-6.9c2.4-1.2,5.4-1.5,8.3-0.8C1216.2,723.5,1218.8,725.4,1220.4,727.8z"/>
	<path class="st1" d="M1226.5,702.7c0.2,1.6-6.6,11.9-6.1,25.1c-1.6-2.4-4.1-4.3-7.3-5.1c-2.9-0.7-5.9-0.4-8.3,0.8
		c5.3-12.1,5.2-23.3,5.1-24.9c2.8,0.2,5.7,0.7,8.5,1.4C1221.2,700.6,1223.9,701.6,1226.5,702.7z"/>
	
		<ellipse transform="matrix(0.245 -0.9695 0.9695 0.245 299.6132 1585.5276)" class="st3" cx="1167.8" cy="600.4" rx="14.7" ry="14.7"/>
</g>
<g>
	<path class="st4" d="M1326.9,756.7c-1.7,1.8-3.4,3.6-5.1,5.3"/>
	<path class="st4" d="M1332.3,545.6c31.3,38.1,44.8,90.2,31.8,141.8c-6.8,26.8-19.8,50.3-37.2,69.3"/>
	<path class="st4" d="M1328.3,540.8c1.4,1.6,2.7,3.1,4.1,4.7"/>
	<path class="st4" d="M1324.6,536.8c1.3,1.3,2.5,2.7,3.7,4"/>
	<path class="st4" d="M1318.8,531.1c2,1.9,3.9,3.8,5.7,5.7"/>
	<path class="st4" d="M1317.9,765.7c-38.4,35.8-93.6,52-148.2,38.1c-85.6-21.7-137.5-109.1-115.8-195.1
		c21.7-86.1,108.7-138.2,194.4-116.5c27.4,6.9,51.4,20.6,70.5,38.8"/>
	<path class="st4" d="M1321.7,762c-1.3,1.3-2.5,2.5-3.8,3.7"/>
	<path class="st4" d="M1105.5,631.7c0.2-0.7,3-2,7.9-3.5c26-7.8,111.9-19.7,194.8,43.7c1.9,1.5,3.9,3,5.8,4.5"/>
	<path class="st4" d="M1113.5,628.7c0-0.1,0-0.3-0.1-0.5c-12.4-112.1,115.9-142.7,105.4-7.2c-0.1,0.8-0.1,1.6-0.2,2.5"/>
	<path class="st4" d="M1308.4,671.8c56.9-132.3-57-164-89.5-50.7"/>
	<line class="st4" x1="1251.1" y1="543.1" x2="1319.4" y2="540.9"/>
	<line class="st4" x1="1170.1" y1="501.7" x2="1214.5" y2="533.9"/>
	<path class="st4" d="M1285.3,706.9c7,13.6,9.3,28.7,5.6,43.6c-3.8,15.1-13.3,27.5-26.2,36.1c-18.6,12.5-44.3,17.1-70.3,10.5
		c-13.7-3.5-25.9-9.6-35.9-17.6c-22-17.6-33.3-43.9-26.9-69.2c1.9-7.6,5.3-14.5,9.7-20.5c17.4-23.5,51.9-34.9,86.8-26.1
		C1254.4,670.2,1275,686.8,1285.3,706.9z"/>
	<path class="st4" d="M1139.2,692.2c0.2-0.9,0.9-1.8,2-2.5c11.9-7.5,72.4-0.4,143.4,17.6"/>
	
		<ellipse transform="matrix(0.245 -0.9695 0.9695 0.245 299.6132 1585.5276)" class="st4" cx="1167.8" cy="600.4" rx="14.7" ry="14.7"/>
	
		<ellipse transform="matrix(0.245 -0.9695 0.9695 0.245 349.6296 1699.8105)" class="st5" cx="1266.2" cy="625.4" rx="14.7" ry="14.7"/>
	<path class="st6" d="M1220.4,727.8c1.6,2.5,2.2,5.5,1.5,8.4c-1.5,5.9-7.8,9.3-14.1,7.7c-6.3-1.6-10.3-7.7-8.8-13.5
		c0.8-3.1,3-5.6,5.8-6.9c2.4-1.2,5.4-1.5,8.3-0.8C1216.2,723.5,1218.8,725.4,1220.4,727.8z"/>
	<path class="st6" d="M1182.6,774.9c-0.5-0.3-1-0.7-1.5-1c-14.4-10.3-22-27.6-17.7-44.4c5-20,25-32.6,46.6-30.9
		c2.8,0.2,5.7,0.7,8.5,1.4s5.5,1.6,8,2.8c19.9,8.8,31.5,29.4,26.5,49.4c-3.1,12.3-11.9,21.8-23.2,26.9c-0.9,0.4-1.8,0.8-2.7,1.1"/>
	<path class="st6" d="M1221.2,734.3c-0.5-2.2-0.8-4.4-0.8-6.5c-0.5-13.3,6.2-23.5,6.1-25.1c0-0.1-0.1-0.2-0.1-0.2"/>
	<path class="st6" d="M1202.3,728.4c0.9-1.7,1.8-3.3,2.5-5c5.3-12.1,5.2-23.3,5.1-24.9c0-0.1,0-0.2,0-0.2"/>
	<path class="st4" d="M1158,780.5c0.1-0.4,0.2-0.7,0.4-1c2.1-3.7,10.3-5.6,22.7-5.6c12.6-0.1,29.4,1.7,48.6,5.1
		c11,2,22.7,4.5,34.9,7.6"/>
</g>
<g id="Layer_4">
	<ellipse class="st7" cx="933.6" cy="115.3" rx="164.1" ry="164.8"/>
	<g id="XMLID_5_">
		<g>
			<path class="st2" d="M1021.7,30.8c11.2,29.1-0.1,58.1-0.1,58.1l0.1,0.7c-22.6,2-40.4,8.3-46.2,16.4L944,64l-0.2-0.3
				C975.9,46.7,988.1,19.8,1021.7,30.8z M996.8,54.7c0-7.8-6.3-14.1-14.1-14.1s-14.1,6.3-14.1,14.1s6.3,14.1,14.1,14.1
				C990.5,68.9,996.8,62.5,996.8,54.7z"/>
			<path class="st2" d="M981.1,194.7c-6.4,0-13.8,0.2-21.9,0.7v-0.1v-29.6c19.7-5.4,31.3-8.3,42.2,30.1v0.1
				C996.2,195.1,989.4,194.7,981.1,194.7z"/>
			<path class="st8" d="M982.7,40.6c7.8,0,14.1,6.3,14.1,14.1s-6.3,14.1-14.1,14.1s-14.1-6.3-14.1-14.1
				C968.5,46.9,974.9,40.6,982.7,40.6z"/>
			<path class="st2" d="M951.4,195.8c-7.2,0.5-15.1,1.2-23.4,2c-0.7,0-1.4,0-2.1-0.1l-2.7-26.6c1.3,0,2.7,0,4.1-0.1
				c12.6,0,23-2.9,31.8-5.4v29.6v0.1C956.6,195.5,954,195.7,951.4,195.8z"/>
			<path class="st2" d="M916.1,197.4c-9.1-0.4-17.6-1-25.3-1.4l-6.6-22.6c10.1-2,23-2,39-2.3l2.7,26.6
				C922.5,197.6,919.3,197.5,916.1,197.4z"/>
			<path class="st2" d="M907.6,68.3l-0.2,0.2c0,20.8-17.7,37.7-39.8,38c-13.1-9.5-29.4-14.8-40.4-16.4v-0.2l5.3-55.7l-0.1-0.5
				C872.3,29.4,893.6,55.7,907.6,68.3z M889.2,60.1c0-7.8-6.3-14.1-14.1-14.1S861,52.3,861,60.1s6.3,14.1,14.1,14.1
				S889.2,67.9,889.2,60.1z"/>
			<path class="st2" d="M884.2,173.4l6.6,22.6c-12.8-0.6-23.5-0.9-31.8,0.2C862.6,182,870.8,176,884.2,173.4z"/>
			<path class="st9" d="M875.1,46c7.8,0,14.1,6.3,14.1,14.1s-6.3,14.1-14.1,14.1S861,67.9,861,60.1S867.3,46,875.1,46z"/>
		</g>
		<g>
			<path class="st10" d="M921.4,41.9c0,18.2-1.1,33-2.5,33"/>
			<path class="st10" d="M817.4,36.8c5.3-1.5,10.4-2.5,15.2-3c39.8-4.4,61,21.9,75,34.5c4.3,3.9,8,6.5,11.3,6.5"/>
			<path class="st10" d="M927.7,56.9c0,5.3,4.1,9.7,9.3,10.1c0.3,0,0.5,0,0.8,0"/>
			<path class="st10" d="M1030.5,34.3c-3.1-1.5-6-2.6-8.8-3.5c-33.6-11-45.8,15.9-77.8,33c-2.2,1.2-4.4,2.2-6.8,3.3
				c-0.2,0.1-0.3,0.1-0.5,0.2"/>
			<path class="st10" d="M907.4,68.5c0,20.8-17.7,37.7-39.8,38c-0.3,0-0.5,0-0.8,0"/>
			<line class="st10" x1="827.3" y1="90" x2="832.6" y2="34.3"/>
			<path class="st10" d="M817.4,90.1c2.1-0.5,5.6-0.5,9.9,0.1c10.9,1.5,27.2,6.9,40.4,16.4c6.3,4.5,11.8,10,15.7,16.5"/>
			<polyline class="st10" points="944,64 975.4,105.9 975.9,106.6 			"/>
			<path class="st10" d="M1021.6,30.5c0,0.1,0.1,0.2,0.1,0.3c11.2,29.1-0.1,58.1-0.1,58.1"/>
			<path class="st10" d="M973.4,111.6c0-2,0.7-3.9,2-5.7c5.8-8.1,23.6-14.4,46.2-16.4c4.9-0.4,9.9-0.7,15.2-0.7"/>
			<path class="st10" d="M996.8,54.7c0,7.8-6.3,14.1-14.1,14.1s-14.1-6.3-14.1-14.1s6.3-14.1,14.1-14.1
				C990.5,40.6,996.8,46.9,996.8,54.7z"/>
			<path class="st10" d="M889.2,60.1c0,7.8-6.3,14.1-14.1,14.1S861,67.9,861,60.1S867.3,46,875.1,46S889.2,52.3,889.2,60.1z"/>
			<path class="st10" d="M843,203.3c3.1-4,8.6-6.1,16-7.1c8.3-1.1,19.1-0.8,31.8-0.2c7.7,0.4,16.2,0.9,25.3,1.4
				c3.2,0.1,6.4,0.3,9.7,0.4c0.7,0,1.4,0,2.1,0.1"/>
			<path class="st10" d="M1012.3,199.9c-1.4-1.8-5.2-3.2-11-4.1c-5.2-0.8-12-1.2-20.3-1.2c-6.4,0-13.8,0.2-21.9,0.7
				c-2.5,0.1-5.1,0.3-7.8,0.5c-7.2,0.5-15.1,1.2-23.4,2"/>
			<path class="st10" d="M927.3,171.1c-1.4,0-2.8,0-4.1,0.1c-16,0.2-29,0.3-39,2.3c-13.4,2.6-21.6,8.6-25.2,22.7
				c-0.1,0.3-0.2,0.6-0.2,1"/>
			<path class="st10" d="M1001.3,195.8c-10.9-38.4-22.5-35.5-42.2-30.1c-8.8,2.4-19.2,5.4-31.8,5.4"/>
			<polyline class="st10" points="923.2,171.1 923.2,171.2 925.8,197.8 925.9,198.5 			"/>
			<polyline class="st10" points="959.1,165.7 959.1,165.7 959.1,195.3 			"/>
			<polyline class="st10" points="884.1,173.1 884.2,173.4 890.8,196 891,196.4 			"/>
			<path class="st10" d="M888.2,196.4c-5.5,4.1-11,9.6-9.6,12.3"/>
			<path class="st10" d="M916.3,197.1c-0.1,0.1-0.1,0.1-0.2,0.2c-4.7,4.7-7.3,8.7-6.6,12.1"/>
			<path class="st10" d="M957.5,208.1c0-6.4-2.7-11.6-6.1-12.3c-0.2-0.1-0.5-0.1-0.8-0.1"/>
			<path class="st10" d="M980.8,194.4c0.1,0.1,0.2,0.2,0.3,0.3c3.3,3.2,5.9,4.7,6.6,10.7"/>
		</g>
	</g>
</g>
<g id="Layer_3">
	<path class="st11" d="M1178.8,387.7c17.9,87.2-40.5,171.9-130.6,189.2s-177.5-39.4-195.5-126.6c-17.9-87.2,40.5-171.9,130.6-189.2
		S1160.9,300.5,1178.8,387.7z"/>
	<path class="st12" d="M1007,401.4c5.9,28.7-16.6,57.2-50.2,63.6c-33.6,6.5-65.6-11.6-71.5-40.3s16.6-57.2,50.2-63.6
		C969.1,354.7,1001.1,372.7,1007,401.4z"/>
	<g id="XMLID_4_">
		<g>
			<polygon class="st8" points="928,309.6 1016.2,398.6 893.7,361.3 			"/>
		</g>
		<g>
			<line class="st13" x1="893.7" y1="361.3" x2="928" y2="309.6"/>
			<line class="st13" x1="1016.2" y1="398.6" x2="893.7" y2="361.3"/>
			<line class="st13" x1="928" y1="309.6" x2="1016.2" y2="398.6"/>
		</g>
	</g>
	<path class="st12" d="M1144.6,390.7c5.9,28.7-16.6,57.2-50.2,63.6c-33.6,6.5-65.6-11.6-71.5-40.3s16.6-57.2,50.2-63.6
		C1106.7,344,1138.7,362,1144.6,390.7z"/>
	<g id="XMLID_3_">
		<g>
			<polygon class="st8" points="1080.9,294 1014.5,399.1 1125.9,337.3 			"/>
		</g>
		<g>
			<line class="st13" x1="1125.9" y1="337.3" x2="1080.9" y2="294"/>
			<line class="st13" x1="1014.5" y1="399.1" x2="1125.9" y2="337.3"/>
			<line class="st13" x1="1080.9" y1="294" x2="1014.5" y2="399.1"/>
		</g>
	</g>
	<path class="st13" d="M1098.8,535"/>
	<path class="st13" d="M973.8,546.1c29.8-78,73.9-32.8,125-11.1"/>
	<path class="st14" d="M986.6,424.6c1.5,7.4-3.6,14.6-11.5,16.2s-15.5-3.3-17-10.7c-1.5-7.4,3.6-14.6,11.5-16.2
		C977.5,412.4,985.1,417.2,986.6,424.6z"/>
	<path class="st14" d="M1123.3,412.7c1.5,7.4-3.6,14.6-11.5,16.2c-7.9,1.5-15.5-3.3-17-10.7s3.6-14.6,11.5-16.2
		S1121.7,405.3,1123.3,412.7z"/>
</g>
<g id="Layer_18">
	
		<ellipse transform="matrix(0.9329 -0.3601 0.3601 0.9329 -147.9171 433.8326)" class="st15" cx="1090.4" cy="613.9" rx="10.6" ry="10.6"/>
	
		<ellipse transform="matrix(0.9329 -0.3601 0.3601 0.9329 -173.0842 398.2073)" class="st15" cx="982.2" cy="663.6" rx="10.6" ry="10.6"/>
	<g id="XMLID_35_">
		<g>
			<path class="st0" d="M1140,611.3c29.3,75.9-8.4,161.1-84.2,190.3c-75.8,29.2-161.1-8.6-190.4-84.5
				c-29.3-75.9,8.4-161.1,84.2-190.3C1025.5,497.7,1110.7,535.5,1140,611.3z M1062.1,647.6c27.8-10.7,41.6-42,30.8-69.8
				c-10.8-27.9-42.1-41.8-69.9-31.1c-27.8,10.7-41.6,42-30.8,69.8C1002.9,644.4,1034.2,658.3,1062.1,647.6z M1095.7,766.5l-49.7-95
				l-61.4,38.8l46.4,92c0.1,0.2,0.2,0.5,0.4,0.7L1095.7,766.5z M952.7,698.5c27.8-10.7,41.6-42,30.8-69.8
				c-10.8-27.9-42.1-41.8-69.9-31.1c-27.8,10.7-41.6,42-30.8,69.8C893.6,695.3,924.9,709.2,952.7,698.5z"/>
			<path class="st16" d="M1092.9,577.8c10.8,27.9-3,59.1-30.8,69.8s-59.1-3.2-69.9-31.1c-10.8-27.9,3-59.1,30.8-69.8
				C1050.8,536,1082.1,549.9,1092.9,577.8z"/>
			<path class="st8" d="M1046,671.5l49.7,95c-39.9-13.2-77.7,8.6-64.7,35.8l-46.4-92L1046,671.5z"/>
			<path class="st17" d="M1095.7,766.5l-64.3,36.5c-0.1-0.2-0.2-0.5-0.4-0.7C1018,775,1055.8,753.2,1095.7,766.5z"/>
			<path class="st16" d="M983.5,628.7c10.8,27.9-3,59.1-30.8,69.8s-59.1-3.2-69.9-31.1c-10.8-27.9,3-59.1,30.8-69.8
				C941.5,586.9,972.8,600.9,983.5,628.7z"/>
		</g>
		<g>
			<path class="st4" d="M1140,611.3c29.3,75.9-8.4,161.1-84.2,190.3c-75.8,29.2-161.1-8.6-190.4-84.5
				c-29.3-75.9,8.4-161.1,84.2-190.3C1025.5,497.7,1110.7,535.5,1140,611.3z"/>
			<path class="st4" d="M1092.9,577.8c10.8,27.9-3,59.1-30.8,69.8s-59.1-3.2-69.9-31.1c-10.8-27.9,3-59.1,30.8-69.8
				C1050.8,536,1082.1,549.9,1092.9,577.8z"/>
			<path class="st4" d="M983.5,628.7c10.8,27.9-3,59.1-30.8,69.8s-59.1-3.2-69.9-31.1c-10.8-27.9,3-59.1,30.8-69.8
				C941.5,586.9,972.8,600.9,983.5,628.7z"/>
			<line class="st4" x1="984.6" y1="710.3" x2="1046" y2="671.5"/>
			<line class="st4" x1="1031" y1="802.2" x2="984.6" y2="710.3"/>
			<line class="st4" x1="1046" y1="671.5" x2="1095.7" y2="766.5"/>
			<line class="st4" x1="1031.4" y1="803" x2="1095.7" y2="766.5"/>
			<path class="st4" d="M1031.4,803c-0.1-0.2-0.2-0.5-0.4-0.7c-13.1-27.2,24.8-49,64.7-35.8"/>
		</g>
	</g>
	
		<ellipse transform="matrix(0.9329 -0.3601 0.3601 0.9329 -164.0901 393.0683)" class="st18" cx="972.9" cy="636.9" rx="13.7" ry="13.7"/>
	
		<ellipse transform="matrix(0.9329 -0.3601 0.3601 0.9329 -140.8364 430.8759)" class="st18" cx="1086" cy="593.4" rx="13.7" ry="13.7"/>
</g>
<g id="Layer_19">
	<circle class="st11" cx="360.5" cy="373.5" r="104.5"/>
	<ellipse class="st19" cx="312.6" cy="352.9" rx="47.3" ry="47.9"/>
	<ellipse class="st19" cx="408.4" cy="350.2" rx="47.3" ry="47.9"/>
	<circle class="st15" cx="307.9" cy="350.2" r="5.3"/>
	<circle class="st15" cx="407.8" cy="348.9" r="5.3"/>
	<ellipse class="st15" cx="375.1" cy="440.1" rx="33.9" ry="27.3"/>
</g>
<g id="Layer_20">
	<circle class="st11" cx="240.5" cy="267.5" r="87.5"/>
	<line class="st20" x1="194.6" y1="217.1" x2="229.4" y2="259.9"/>
	<line class="st20" x1="229.4" y1="217.1" x2="194.6" y2="259.9"/>
	<line class="st20" x1="253.9" y1="217.1" x2="288.6" y2="259.9"/>
	<line class="st20" x1="288.6" y1="217.1" x2="253.9" y2="259.9"/>
	<circle class="st18" cx="243.8" cy="315.5" r="17.1"/>
</g>
<g id="Layer_21">
	<circle class="st11" cx="243.5" cy="658.5" r="124.5"/>
	<ellipse class="st21" cx="203" cy="626.8" rx="45.2" ry="43.5"/>
	<ellipse class="st21" cx="294.6" cy="623.3" rx="45.2" ry="43.5"/>
	<circle class="st18" cx="281.7" cy="627.4" r="11.2"/>
	<circle class="st22" cx="219.4" cy="634.4" r="11.2"/>
	<g id="XMLID_36_">
		<g>
			<path class="st2" d="M288,749.7c1.2,4.4,2.6,9.1,4.3,14.1c-52.4-8.1-94,1.3-94,1.3c-0.1-3.3-0.2-6.9-0.2-10.9h0.2
				c0-2.4,40.2-22.3,89.2-4.3L288,749.7z"/>
			<path d="M288,749.7l-0.5,0.1c-48.9-17.9-89.2,1.9-89.2,4.3h-0.2c0.1-18.6,2.9-43,18.6-60.1l0.2,0.2l67.2,0.3
				C282.2,709.2,281.6,725.8,288,749.7z"/>
			<path class="st2" d="M287.6,674.4l-0.1,1c-1.1,6.3-2.3,12.6-3.3,19.2l-67.2-0.3l-0.2-0.2C229.8,680,251.4,671,287.6,674.4z"/>
		</g>
		<g>
			<path class="st4" d="M296.2,675.4c-3-0.4-5.8-0.7-8.6-1c-36.2-3.4-57.9,5.7-70.8,19.7c-15.7,17.1-18.5,41.5-18.6,60.1
				c0,3.9,0.1,7.6,0.2,10.9"/>
			<path class="st4" d="M198.4,765.1c0,0,41.6-9.4,94-1.3c2.5,0.4,5.1,0.8,7.7,1.3"/>
			<path class="st4" d="M292.4,764c0-0.1,0-0.1-0.1-0.2c-1.7-5-3.1-9.6-4.3-14.1c-6.4-23.9-5.8-40.5-3.8-55.1
				c1-6.7,2.2-12.9,3.3-19.2"/>
			<path class="st4" d="M198.4,754.2c0-2.4,40.2-22.3,89.2-4.3"/>
			<polyline class="st4" points="217.1,694.3 284.3,694.6 285.2,694.6 			"/>
		</g>
	</g>
	<path class="st4" d="M151.1,594.2c-3.3-10.6,28-45.2,64.8-33.3"/>
	<path class="st4" d="M256.6,563.3c3.8-10.4,49.8-18.7,71.7,13.1"/>
</g>
<g id="Layer_23">
	<g>
		<path class="st11" d="M1367.8,492.9c-28.4,25.6-66,41.1-107.3,41.1c-88.6,0-160.5-71.9-160.5-160.5S1171.9,213,1260.5,213
			c39.2,0,75,14,102.9,37.3"/>
		<g>
			<path class="st2" d="M1210,385.7c-26.9,0-48.9-21.9-48.9-48.9s21.9-48.9,48.9-48.9s48.9,22.1,48.9,49.3
				C1258.9,363.9,1237,385.7,1210,385.7z"/>
			<path d="M1210,290.9c25.3,0,45.9,20.8,45.9,46.3c0,12.2-4.8,23.6-13.4,32.2c-8.6,8.5-20.2,13.2-32.5,13.2
				c-25.3,0-45.9-20.6-45.9-45.9S1184.7,290.9,1210,290.9 M1210,284.9c-28.6,0-51.9,23.2-51.9,51.9s23.2,51.9,51.9,51.9
				s51.9-22.8,51.9-51.4S1238.7,284.9,1210,284.9L1210,284.9z"/>
		</g>
		<path class="st10" d="M1292.1,255.4c6.4-1,38.6-6.2,60.6,24"/>
		<circle class="st23" cx="1211.4" cy="342.7" r="13.3"/>
		<circle class="st24" cx="1204.8" cy="339.4" r="4.2"/>
		<path class="st10" d="M1233.3,254.2c-4.4,4.8-26.7,28.6-62.6,18.3"/>
		<g>
			<path d="M1308.6,499.4c-0.1-0.8-0.2-1.7-0.3-2.5c-0.6-0.6-0.9-1.5-0.9-2.3c-0.8-0.9-1-2.1-0.6-3.2c-0.4-0.7-0.5-1.5-0.4-2.2
				c-0.2-0.5-0.4-1-0.4-1.6c-0.6-0.8-0.7-1.8-0.5-2.8c-0.8-1.2-0.7-3.1,0.3-4.1v-0.1c-0.8-2.1-1.5-4.2-1.7-6.4
				c-0.1-0.9-0.1-1.9,0-2.8c-0.3-2-0.7-4.1-1-6.1c-0.1-0.6,0-1.1,0.1-1.6c0.1-0.6,0.2-1.5,0.3-2.1c-0.4-3.1-1-6.2-0.9-9.4
				c0.1-3.9,1.3-7.7,2.1-11.5c0-0.7,0-1.4,0-2.1c0-0.5,0.1-1,0.3-1.4c-0.5,0.4-1.1,0.6-1.9,0.6c-4.1,0.1-8.1,0.3-12,1.5
				c-6,1.8-12.2,2.5-18.3,3.5c-10.3,1.7-20.7,3.6-31.2,3.6c-4.9,0-9.6-1.2-14.4-2.2c-5.1-1.1-10.2-0.8-15.4-1.3
				c-7.1-0.7-15.2-4.3-20.5-9.5c-0.3,0.1-0.6,0.1-1,0.1c-0.3,0-0.6,0-0.8-0.1c-0.3,1.2-1.3,2.3-2.9,2.3h-0.1c-0.4,1-0.8,2-1.3,2.9
				c-0.7,1.5-1.3,3-1.8,4.4c0.4,1.6,0.5,3.2,0.6,5c0.2,4,1.6,7.9,2.9,11.7c0.3,0.8,0.2,1.5,0,2l0,0c2.7,5.5,6.2,10.3,9.4,15.5
				c0.3,0.6,0.5,1.1,0.5,1.6c1.7,1.6,3.5,3,4.9,4.8c0.9,1.2,2.1,2.2,3.4,3c2.4,1.6,3.9,4.2,6.3,5.7c0.5,0.3,0.8,0.6,1.1,1
				c1.3,0.2,2,1.2,2.3,2.2c3,1.6,6,3.4,9.1,4.7c1.8,0.8,3.7,1.3,5.5,2.2c1.1,0.6,2.2,2.2,3.3,2.6c0.6,0.2,1.1,0.6,1.4,1
				c0.2,0,0.4,0,0.6,0c1.7,0,2.7,1.2,3,2.5c3.3,1.1,6.7,1.9,10.1,2.6c4.2,0.9,8.4,2.3,12.6,3.2c4.3,0.8,8.8,0.5,13.1,0.1
				c4.2-0.4,8.4-0.5,12.6-0.8l0,0c0.4-1,1.3-1.7,2.7-1.8c2-0.1,3.9-0.2,5.8-0.5c0.2-1.4,1.2-2.6,3-2.6c0.3,0,0.6,0,0.9,0.1
				c0.3-0.1,0.5-0.1,0.9-0.1c0.6,0,1,0.1,1.4,0.3c0.2-0.3,0.4-0.6,0.6-0.8c0.6-0.6,1.4-0.9,2.2-0.9h0.3c0.5-0.7,1.3-1.2,2.5-1.2h0.1
				c0.5-0.8,1.3-1.4,2.6-1.4c0.6,0,1.1,0.1,1.6,0.4c0.1,0,0.2-0.1,0.3-0.1C1310,503.2,1308.9,501.5,1308.6,499.4z"/>
			<g id="XMLID_38_">
				<g>
					<path class="st2" d="M1209.9,406.1c1.2,10.3,48.7,38.2,104.3,26.2c-58.2,26.4-122.3,10.2-123.7-0.3l-0.2-0.2L1209.9,406.1z"/>
				</g>
				<g>
					<polyline class="st10" points="1215.7,398.5 1209.9,406.1 1190.3,431.8 1178.4,447.4 					"/>
					<path class="st10" d="M1209.9,405.7c0,0.1,0,0.3,0,0.4c1.2,10.3,48.7,38.2,104.3,26.2c6-1.3,12-3,18.2-5.3"/>
					<path class="st10" d="M1190.5,432c1.4,10.5,65.5,26.7,123.7,0.3c0.9-0.4,1.8-0.8,2.7-1.3"/>
				</g>
			</g>
			<path class="st10" d="M1304.1,506.5c7.2-3.2,14.3-7.6,21.4-13.3"/>
			<path class="st10" d="M1185.5,437.6c-4.8,11.5,2,29.1,16,44.5"/>
			<path class="st10" d="M1300.7,438.7"/>
			<ellipse class="st25" cx="1262.2" cy="491.6" rx="15.8" ry="12.5"/>
			<ellipse class="st25" cx="1267.2" cy="489.9" rx="15.8" ry="12.5"/>
			<ellipse class="st25" cx="1275.5" cy="494.9" rx="15.8" ry="12.5"/>
			<ellipse class="st25" cx="1287.9" cy="500.7" rx="10" ry="8.3"/>
			<circle class="st25" cx="1297.1" cy="503.2" r="4.2"/>
			<path class="st26" d="M1304.1,506.5c-40,18-79.7-0.1-102.3-24c14.4-12.5,38.7-19.3,53.1,11.3"/>
			<g id="XMLID_37_">
				<g>
					<path class="st10" d="M1248.6,484.5c14.4-12.5,39.4-7.5,53.7,23.1"/>
				</g>
			</g>
			<path class="st10" d="M1304.2,437c-1.3,19.2-1.2,39.3,2.9,58.2c0.6,2.7,1.2,5.4,2.3,7.9"/>
		</g>
		<g>
			<path class="st2" d="M1314.5,385.7c-26.9,0-48.9-21.9-48.9-48.9s21.9-48.9,48.9-48.9c26.9,0,48.9,22.1,48.9,49.3
				C1363.3,363.9,1341.4,385.7,1314.5,385.7z"/>
			<path d="M1314.5,290.9c25.3,0,45.9,20.8,45.9,46.3c0,12.2-4.8,23.6-13.4,32.2c-8.6,8.5-20.2,13.2-32.5,13.2
				c-25.3,0-45.9-20.6-45.9-45.9S1289.2,290.9,1314.5,290.9 M1314.5,284.9c-28.6,0-51.9,23.2-51.9,51.9s23.2,51.9,51.9,51.9
				s51.9-22.8,51.9-51.4S1343.1,284.9,1314.5,284.9L1314.5,284.9z"/>
		</g>
		<circle class="st27" cx="1311.2" cy="341.1" r="13.3"/>
		<circle class="st24" cx="1304.6" cy="337.7" r="4.2"/>
	</g>
</g>
<g id="Layer_25">
	<g>
		<ellipse class="st11" cx="730.1" cy="663" rx="140.1" ry="141"/>
		<g>
			<path class="st2" d="M681.3,667.2c-25.7,0-46.5-20.9-46.5-46.5s20.9-46.5,46.5-46.5c25.7,0,46.5,21.1,46.5,46.9
				C727.8,646.5,707,667.2,681.3,667.2z"/>
			<path d="M681.3,576.6c24.3,0,44,19.9,44,44.4c0,11.7-4.6,22.7-12.9,30.9c-8.3,8.2-19.4,12.7-31.1,12.7c-24.3,0-44-19.7-44-44
				S657,576.6,681.3,576.6 M681.3,571.6c-27.1,0-49,21.9-49,49s21.9,49,49,49s49-21.5,49-48.6C730.3,594,708.4,571.6,681.3,571.6
				L681.3,571.6z"/>
		</g>
		<g>
			<path class="st2" d="M778.7,667.8c-25.7,0-46.5-20.9-46.5-46.5c0-25.7,20.9-46.5,46.5-46.5c25.7,0,46.5,21.1,46.5,46.9
				C825.3,647.1,804.4,667.8,778.7,667.8z"/>
			<path d="M778.7,577.2c24.3,0,44,19.9,44,44.4c0,11.7-4.6,22.7-12.9,30.9c-8.3,8.2-19.4,12.7-31.1,12.7c-24.3,0-44-19.7-44-44
				S754.5,577.2,778.7,577.2 M778.7,572.2c-27.1,0-49,21.9-49,49s21.9,49,49,49s49-21.5,49-48.6
				C827.8,594.6,805.8,572.2,778.7,572.2L778.7,572.2z"/>
		</g>
		<circle class="st23" cx="701.9" cy="620.7" r="12.2"/>
		<circle class="st27" cx="756.4" cy="622.6" r="12.2"/>
		<circle class="st24" cx="696.2" cy="618.8" r="3.8"/>
		<circle class="st24" cx="750.7" cy="618.8" r="3.8"/>
		<path class="st28" d="M852,683.4c0-0.3-0.1-0.6-0.1-0.9c-0.1-2,0.2-4,0.6-6c-0.3-1.6-0.6-3.3-0.6-5c0-0.1,0-0.2,0-0.3
			c-0.4,0-0.8,0-1.2,0c-0.2,0-0.4,0-0.6,0c-1,1.6-2.2,3-3.4,4.3c-3.1,3.1-7.2,5.5-11.5,6.8c-3.1,2.8-6.9,4.9-11,6.1
			c-3.1,2.5-6.9,4.4-10.8,5.4c-4.1,2.9-9.2,4.8-14.2,5.1c-1.6,0.7-3.4,1.3-5.1,1.7c-2,1.5-4,2.7-7.1,3.2c-3.1,0.8-6.2,1.1-9.2,0.9
			c-2.6,1.3-5.4,2.2-8.3,2.7c-3.2,1.3-6.7,2-10.1,2c-2.2,0-4.2-0.3-6.2-0.7c-1.2,0.2-2.4,0.3-3.6,0.3c-0.6,0-1.2,0-1.9-0.1
			c-2.3,0.6-4.7,1-7,1c-2.5,0-5-0.4-7.3-1c-1.5,0.3-2.9,0.4-4.4,0.4c-2.7,0-5.2-0.4-7.6-1.1c-0.9,0.1-1.9,0.2-2.8,0.2
			c-3.3,0-6.3-0.6-9.2-1.6c-1.6,0.3-3.2,0.5-4.8,0.5c-5,0-9.6-1.3-13.5-3.7c-1.1-0.3-2.2-0.6-3.3-1.1c-5.3-0.2-10.1-2-14.1-4.8
			c-2.9-0.4-5.6-1.2-8.1-2.5c-4.4-0.6-8.4-2.3-11.8-4.8c-4.1-0.7-7.7-2.4-10.9-4.7c-3.2-0.8-6.1-2.3-8.7-4.1c-2.5-1-4.8-2.3-6.9-3.9
			c-0.3-0.1-0.5-0.2-0.8-0.3c-4.5-0.8-8.5-2.6-11.9-5.3c-0.4,0.4-0.7,0.7-1.1,1c0,0.4,0.1,0.9,0.1,1.3c0.2,3.8-0.9,7.8-2.6,11.5
			c1.3,3.2,2.1,6.7,2.3,10.3c0,0.8,0,1.6-0.1,2.4c1.7,3.1,2.9,6.6,3.4,10.2c1.2,1.8,2.1,3.8,2.9,6c4.3,3.1,7.7,7.5,9.7,12.5l0.1,0.1
			c4.6,2.1,8.4,5.5,11.2,9.6c1.4,0.8,2.7,1.8,3.9,2.8c3.6,1.2,6.9,3.2,9.6,5.7c1.7,1,3.2,2.1,4.6,3.4c1,0.5,2,1,3,1.6
			c2.5,0.6,5,1.6,7.3,2.9l1.6,1.2c3.6,0.7,6.8,2.1,9.7,4c0.4,0.2,0.7,0.4,1.1,0.7c2.2,0.4,4.3,1.1,6.3,1.9c2.6,0.3,5.1,1,7.4,2
			c0.6,0,1.3-0.1,1.9-0.1c4.2,0,8.2,1,11.6,2.7c2.3,0.3,4.4,0.8,6.4,1.6c0.3,0,0.6,0,0.9,0c3.1,0,6,0.5,8.7,1.4
			c1.1-0.1,2.2-0.2,3.2-0.2c1.1,0,2.2,0.1,3.3,0.2c1.7-0.3,3.4-0.5,5-0.5c3,0,5.9,0.5,8.5,1.4c0.9-0.1,1.9-0.2,2.8-0.2
			c0.7,0,1.3,0,2,0.1c2.9-1,6-1.6,9-1.6c0.6,0,1.2,0,1.9,0.1c3.7-1.8,7.9-2.8,11.9-2.8c0.7,0,1.3,0,2,0.1c2.9-1,6-1.6,9-1.6l0,0
			c1.3-0.8,2.7-1.4,4.1-1.9c2.1-1.1,4.3-1.8,6.6-2.1c1.3-0.9,2.7-1.7,4.2-2.4c2.6-1.8,5.5-3.2,8.6-4.1c1.1-1.1,2.4-2.1,3.7-3
			c0.3-0.4,0.7-0.8,1.1-1.1c1.4-1.4,3.1-2.7,4.9-3.8l0.1-0.1c2.2-2.2,4.8-4,7.7-5.3c0.7-1,1.5-1.9,2.3-2.7c1.1-1.1,2.4-2.2,3.7-3.1
			c1.3-4.5,3.9-8.9,7-11.9l0.1-0.1c1.3-3.9,3.5-7.7,6.1-10.5c0.6-2.1,1.5-4.2,2.6-6.1c0.2-4.1,1.7-8.5,3.9-12.2
			c0.1-0.6,0.2-1.2,0.3-1.7C850.6,688.8,851.1,686,852,683.4z"/>
		<path class="st10" d="M611.1,670.3c5.5-1.6,123,90.1,241.7,0"/>
		<path class="st10" d="M614.8,670.3c-29.9,94.2,226.4,163.8,238.1,0"/>
		<line class="st10" x1="660.2" y1="693.9" x2="638.1" y2="733.1"/>
		<line class="st10" x1="698.2" y1="706.1" x2="680.4" y2="758.8"/>
		<line class="st10" x1="741.7" y1="711.6" x2="739.2" y2="767.4"/>
		<line class="st10" x1="778.4" y1="706.1" x2="795" y2="757"/>
		<line class="st10" x1="814.6" y1="693.9" x2="831.7" y2="731.3"/>
	</g>
</g>
<g id="Layer_7">
	<g>
		<ellipse class="st11" cx="652.8" cy="122" rx="149.8" ry="145"/>
		<g id="XMLID_9_">
			<g>
				<path class="st2" d="M607.5,127.9L607.5,127.9c-7.1-7.5-19.7-2.9-20.7,0.7c-6,6.2-17.5,7.3-19.9,2.8l-0.1,0.1
					c-7.1-8.8-20.6-4.5-20.6-0.4l-1.2,0.6c-5.4-8.5-8.5-18.6-8.5-29.3c0-31.2,26.2-56.5,58.5-56.5s58.5,25.3,58.5,56.5
					c0,8.6-2,16.8-5.6,24.2l-0.2-0.1c-9.6-8.2-19.3-3.5-20.6,0.1C620.6,134.2,610.6,131.6,607.5,127.9z"/>
				<path class="st29" d="M647.8,126.4c-9.4,19.1-29.6,32.3-52.9,32.3c-21.2,0-39.8-10.9-50.1-27.2l1.2-0.6
					c0.1-4.1,13.5-8.4,20.6,0.4l0.1-0.1c2.4,4.5,13.9,3.4,19.9-2.8c1-3.6,13.6-8.2,20.6-0.6l0.1-0.1c3.1,3.6,13.2,6.3,19.6-1.4
					c1.3-3.6,11-8.3,20.6-0.1L647.8,126.4z"/>
			</g>
			<g>
				<path class="st30" d="M544.8,131.6c-5.4-8.5-8.5-18.6-8.5-29.3c0-31.2,26.2-56.5,58.5-56.5s58.5,25.3,58.5,56.5
					c0,8.6-2,16.8-5.6,24.2c-9.4,19.1-29.6,32.3-52.9,32.3C573.7,158.8,555.1,147.9,544.8,131.6z"/>
				<path class="st30" d="M546.1,131c0.1-4.1,13.5-8.4,20.6,0.4"/>
				<path class="st30" d="M566.4,130.2c0.1,0.4,0.2,0.8,0.4,1.1c2.4,4.5,13.9,3.4,19.9-2.8c0.1-0.1,0.1-0.1,0.2-0.2"/>
				<path class="st30" d="M586.7,129c0-0.1,0-0.3,0.1-0.4c1-3.6,13.6-8.2,20.6-0.6l0.1,0.1"/>
				<path class="st30" d="M607.2,127.5c0.1,0.1,0.2,0.3,0.3,0.4c3.1,3.6,13.2,6.3,19.6-1.4c0.2-0.2,0.4-0.5,0.6-0.7"/>
				<path class="st30" d="M626.9,127.2c0-0.2,0.1-0.5,0.2-0.8c1.3-3.6,11-8.3,20.6-0.1"/>
			</g>
		</g>
		<g id="XMLID_8_">
			<g>
				<path class="st31" d="M685.5,129.8l-0.1,0.1c-7.1-8.8-20.6-4.5-20.6-0.4l-1.5,0.8c-5.4-8.5-8.5-18.6-8.5-29.3
					c0-31.2,26.2-56.5,58.5-56.5s58.5,25.3,58.5,56.5c0,8.5-2,16.6-5.5,23.9h-0.1c-9.6-8.2-19.3-3.5-20.6,0.1
					c-6.4,7.7-16.5,5.1-19.6,1.4l-0.1,0.1c-7-7.6-19.6-3-20.6,0.6C699.4,133.2,687.9,134.3,685.5,129.8z"/>
				<path class="st29" d="M705.4,127c1-3.6,13.6-8.2,20.6-0.6l0.1-0.1c3.1,3.6,13.2,6.3,19.6-1.4c1.3-3.6,11-8.3,20.6-0.1h0.1
					c-9.3,19.3-29.6,32.6-53.1,32.6c-21.2,0-39.8-10.9-50.1-27.2l1.5-0.8c0.1-4.1,13.5-8.4,20.6,0.4l0.1-0.1
					C687.9,134.3,699.4,133.2,705.4,127z"/>
			</g>
			<g>
				<path class="st30" d="M663.3,130.2c-5.4-8.5-8.5-18.6-8.5-29.3c0-31.2,26.2-56.5,58.5-56.5s58.5,25.3,58.5,56.5
					c0,8.5-2,16.6-5.5,23.9c-9.3,19.3-29.6,32.6-53.1,32.6C692.1,157.4,673.6,146.5,663.3,130.2z"/>
				<path class="st30" d="M664.8,129.4c0.1-4.1,13.5-8.4,20.6,0.4"/>
				<path class="st30" d="M685.1,128.7c0.1,0.4,0.2,0.8,0.4,1.1c2.4,4.5,13.9,3.4,19.9-2.8c0.1-0.1,0.1-0.1,0.2-0.2"/>
				<path class="st30" d="M705.4,127.5c0-0.1,0-0.3,0.1-0.4c1-3.6,13.6-8.2,20.6-0.6l0.1,0.1"/>
				<path class="st30" d="M725.9,126c0.1,0.1,0.2,0.3,0.3,0.4c3.1,3.6,13.2,6.3,19.6-1.4c0.2-0.2,0.4-0.5,0.6-0.7"/>
				<path class="st30" d="M745.6,125.7c0-0.2,0.1-0.5,0.2-0.8c1.3-3.6,11-8.3,20.6-0.1"/>
			</g>
		</g>
		<path class="st30" d="M545.9,36.3c33.4,12.2,67.4,4,76.1-18.2"/>
		<path class="st30" d="M682.2,11.1c7.7,25.1,41.8,37.4,76.2,27.6"/>
		<path class="st32" d="M639,227.9c0,0.7,13.6,2.8,29.5-0.1"/>
		<g>
			<path class="st33" d="M684.4,211.5c0-0.1,0.1-0.1,0.1-0.2c-0.5-2.1-1-4.1-1.4-6.2c-0.3-1.7-0.2-3.4,0.4-4.9
				c-0.4-0.2-0.7-0.5-1-0.8c-0.8-0.7-1.3-1.5-1.6-2.4c-0.5-0.9-0.7-1.8-0.7-2.9c0-1,0.2-2,0.7-2.9c0.3-0.8,0.7-1.4,1.2-2
				c-0.1-0.4-0.2-0.8-0.2-1.1c-1-2-1.1-4.4-0.4-6.5c-0.8-1.2-1.2-2.6-1.3-4c-0.8,0.3-1.6,0.4-2.6,0.4c-1.3,0-2.4-0.3-3.3-0.7
				c-0.2,0-0.4,0.1-0.6,0.1c-0.3,0.3-0.6,0.5-0.9,0.7c-0.7,0.7-1.6,1.1-2.6,1.3c-1,0.3-2.1,0.4-3.1,0.1c-0.2,0-0.3,0-0.5,0
				c-1.2,1.8-3.3,3.2-6.2,3.2c-0.1,0-0.3,0-0.4,0c-0.9,0.3-1.8,0.5-2.9,0.5c-0.4,0-0.7,0-1-0.1c-0.5,0.6-1.2,1.1-2,1.5
				c-11.1,6-23.9,6.2-35.3,11.2c-0.1,0-0.1,0-0.2,0.1c-0.6,2.7-2.6,5.2-5.4,5.6c-1.3,0.2-2.6,0.5-3.9,0.9c-0.4,1.4-1.1,2.7-2.2,3.6
				c0.2,0.1,0.3,0.3,0.5,0.4c1.5,1.3,2.2,3.3,2.3,5.3c0,0.2,0,0.4,0,0.6c2,0.4,3.5,1.4,4.5,2.8c3.9,0.7,7.7,1.6,11.5,2.5
				c1.9-1.4,4.4-1.9,6.8-1.4c1.9,0.4,3.8,0.8,5.6,1.1c1-0.5,2.2-0.7,3.6-0.7c0.5,0,1,0,1.5,0c0.7-0.1,1.5-0.1,2.3-0.1
				c7-0.5,13.9-2.8,21.1-2.7c2.3,0,4.8,0.3,7.2,0.4c0.3,0,0.5-0.1,0.8-0.1c2.5-0.4,4.9-1.6,7.3-2.4
				C682.8,211.5,683.6,211.4,684.4,211.5z"/>
			<path class="st4" d="M690.1,172.2c-158.7,46.4-52.9,53.6,21.7,32.1"/>
			<path class="st4" d="M681,175.3c0,19.4,2.1,35,4.6,35"/>
		</g>
		<circle class="st34" cx="617.4" cy="105" r="9.5"/>
		<circle class="st34" cx="730.4" cy="105" r="9.5"/>
	</g>
</g>
<g id="Layer_9">
	<g>
		<circle class="st11" cx="156.5" cy="117.5" r="140.5"/>
		<g id="XMLID_12_">
			<g>
				<path class="st35" d="M120.2,40.6c16.5,5.8,28.3,21.4,28.3,39.9c0,23.3-18.9,42.2-42.2,42.2c-22.1,0-40.2-16.9-42.1-38.5
					c4-1.1,7.7-2.9,11.5-4.5c3.7-1.6,7.5-3.3,10.9-5.6c0.6,0,1.2-0.1,1.6-0.4c2-1.5,3.9-3.6,6.4-4.2c1-0.3,1.7-0.9,2-1.6
					c1-0.2,1.7-0.9,2-1.8c5.5-4,10.7-8.7,14.1-14.4c0.2-0.2,0.3-0.3,0.5-0.5C115.7,47.7,118.1,44.3,120.2,40.6z"/>
			</g>
			<g>
				<path class="st4" d="M120.2,40.6c-2.1,3.7-4.6,7.1-7,10.6c-0.1,0.2-0.3,0.4-0.5,0.5c-3.5,5.7-8.6,10.4-14.1,14.4
					c-0.3,0.9-1,1.6-2,1.8c-0.3,0.7-0.9,1.4-2,1.6c-2.5,0.6-4.4,2.7-6.4,4.2c-0.5,0.4-1.1,0.5-1.6,0.4c-3.4,2.2-7.1,4-10.9,5.6
					s-7.6,3.4-11.5,4.5c1.9,21.6,20,38.5,42.1,38.5c23.3,0,42.2-18.9,42.2-42.2C148.5,62,136.7,46.4,120.2,40.6z"/>
			</g>
		</g>
		<ellipse cx="121.5" cy="96.9" rx="21.9" ry="21.2"/>
		<path class="st4" d="M44.5,86.6C73.4,88,113.3,66.4,127.1,26"/>
		<g>
			<path class="st36" d="M195.8,40.6c2.1,3.7,4.6,7.1,7,10.6c0.1,0.2,0.3,0.4,0.5,0.5c3.4,5.7,8.6,10.4,14.1,14.4
				c0.3,0.9,1,1.6,2,1.8c0.3,0.7,0.9,1.3,2,1.6c2.5,0.6,4.4,2.7,6.4,4.2c0.5,0.4,1.1,0.5,1.6,0.4c3.4,2.2,7.1,4,10.9,5.6
				c3.8,1.6,7.6,3.4,11.5,4.5c-1.9,21.6-20,38.5-42.1,38.5c-23.3,0-42.2-18.9-42.2-42.2C167.5,62,179.4,46.4,195.8,40.6z"/>
			<path class="st4" d="M271.6,86.6C242.7,88,202.7,66.4,189,26"/>
		</g>
		<path class="st32" d="M149.1,219.5c0,0.7,12.7,2.8,27.6-0.1"/>
		<ellipse cx="221.6" cy="98.3" rx="21.9" ry="21.2"/>
		<g>
			<path class="st33" d="M191.6,203.6c0-0.1,0.1-0.1,0.1-0.2c-0.5-2-0.9-4-1.3-6c-0.3-1.6-0.2-3.3,0.4-4.7c-0.3-0.2-0.7-0.5-1-0.8
				c-0.7-0.7-1.2-1.4-1.5-2.3c-0.5-0.9-0.7-1.8-0.6-2.8c0-1,0.2-1.9,0.6-2.8c0.2-0.7,0.6-1.4,1.1-2c-0.1-0.4-0.2-0.7-0.2-1.1
				c-1-1.9-1.1-4.3-0.3-6.3c-0.7-1.1-1.1-2.5-1.2-3.9c-0.7,0.2-1.5,0.4-2.4,0.4c-1.2,0-2.2-0.2-3.1-0.7c-0.2,0-0.3,0-0.5,0.1
				c-0.3,0.3-0.6,0.5-0.9,0.7c-0.7,0.6-1.5,1.1-2.5,1.3c-1,0.3-1.9,0.3-2.9,0.1c-0.2,0-0.3,0-0.4,0c-1.1,1.8-3.1,3.1-5.8,3.1
				c-0.1,0-0.3,0-0.4,0c-0.8,0.3-1.7,0.5-2.7,0.5c-0.3,0-0.7,0-1-0.1c-0.5,0.5-1.1,1.1-1.9,1.5c-10.4,5.8-22.4,6-33.1,10.9
				c-0.1,0-0.1,0-0.2,0.1c-0.6,2.6-2.4,5-5.1,5.4c-1.2,0.2-2.4,0.5-3.6,0.9c-0.3,1.3-1,2.6-2.1,3.5c0.2,0.1,0.3,0.3,0.5,0.4
				c1.4,1.3,2,3.2,2.1,5.1c0,0.2,0,0.4,0,0.6c1.9,0.3,3.3,1.3,4.2,2.7c3.6,0.7,7.2,1.5,10.8,2.4c1.7-1.3,4.1-1.8,6.4-1.4
				c1.8,0.4,3.5,0.7,5.3,1.1c0.9-0.5,2.1-0.7,3.4-0.6c0.5,0,0.9,0,1.4,0c0.7-0.1,1.4-0.1,2.1-0.1c6.6-0.5,13-2.8,19.7-2.6
				c2.2,0,4.5,0.3,6.7,0.4c0.3,0,0.5-0.1,0.8-0.1c2.4-0.4,4.6-1.6,6.9-2.4C190.1,203.6,190.9,203.5,191.6,203.6z"/>
			<path class="st4" d="M197,165.6c-148.5,45-49.6,52,20.3,31.1"/>
			<path class="st4" d="M188.5,168.5c0,18.8,1.9,33.9,4.3,33.9"/>
		</g>
		<g>
			<path class="st29" d="M151.4,118.8c-0.8-0.3-1.6-0.7-2.2-1.1c-0.4-0.1-0.7-0.2-1.1-0.3c-0.4,0-0.8,0-1.3,0c-0.3,0-0.6-0.1-1-0.2
				c-0.6,0.4-1.4,0.7-2.3,0.7c-0.4,0.3-1,0.5-1.6,0.4c-0.9-0.1-1.4-0.5-1.8-1.1c-0.5-0.3-0.9-0.8-1.1-1.3c-1.1-0.3-2.1-0.6-3.1-1
				c-1.4,0.3-2.8,0.4-4.2,0.4c-0.6,0.5-1.3,0.9-2.2,0.9c-0.4,0.2-0.7,0.4-1.1,0.5c-0.6,0.9-1.4,1.5-2.6,1.6
				c-0.9,0.8-1.9,1.4-3.2,1.7c-0.8,0.6-1.7,1.1-2.7,1.3c-0.5,0.2-1,0.4-1.5,0.5c-0.6,0.5-1.4,0.7-2.3,0.7c-0.1,0-0.2,0-0.4,0
				c-0.4,0.1-0.8,0.2-1.2,0.2c0,0,0,0-0.1,0c-0.6,0.4-1.4,0.6-2.4,0.5c-0.7-0.1-1.3-0.3-1.8-0.6c-0.8-0.4-1.4-1.1-1.7-1.8l-0.1-0.1
				c-0.9-0.1-1.5-0.5-2-0.9c-0.3-0.1-0.6-0.2-0.9-0.4c-0.4-0.1-0.8-0.3-1.2-0.5c-0.5-0.1-1-0.3-1.4-0.5c-0.8-0.1-1.6-0.3-2.3-0.6
				l0,0c-0.7,0.1-1.5,0.2-2.4,0.1c-0.1,0-0.2,0-0.2,0c-0.3,0-0.6,0-0.9,0s-0.6,0-1,0c-0.6,0.3-1.3,0.4-2.1,0.3
				c-0.2,0-0.5-0.1-0.7-0.1c-1.1-0.2-1.8-0.7-2.4-1.4c-0.5-0.3-1-0.6-1.4-1c-0.4-0.1-0.7-0.2-1.1-0.3c-0.7-0.1-1.3-0.3-1.9-0.6
				c-0.3,0-0.6,0-0.8,0c-0.5-0.1-1-0.1-1.4-0.3c-0.2,0-0.3,0-0.5,0c-0.9-0.1-1.7-0.3-2.4-0.6c-0.2,0-0.3,0-0.5,0
				c-0.8-0.1-1.6-0.3-2.2-0.5c-4.6-1.2-8.3-4-10.9-7.7c-0.4-0.4-0.8-0.8-1.1-1.3l-0.2-0.3c-0.3-0.4-0.6-0.9-0.9-1.3
				c-0.2-0.2-0.5-0.5-0.7-0.7c-0.5-0.2-1-0.5-1.5-0.8c-0.2-0.1-0.4-0.2-0.7-0.3c-0.2,0-0.3,0-0.5,0c-0.3,0-0.5-0.1-0.8-0.1
				c-0.4,0-0.7,0-1.1,0c-0.5,1.1-1,2.1-1.6,3c0.1,0.5,0.1,1,0.2,1.5c0.4,0.4,0.7,0.7,1.1,1.1c1.1,1.3,2.1,2.8,3,4.3
				c1.3,0.6,2.3,1.6,3,2.7c0.9,0.5,1.7,1,2.5,1.6c3,1.7,5.5,4.2,7.2,7.2c2.4,3.8,3.7,8.3,3.4,13.1c0,0.7-0.1,1.4-0.2,2.1
				c0.1,1.1,0.1,2.2,0.1,3.3c0,0.3-0.1,0.7-0.1,1c0.2,0.7,0.3,1.4,0.2,2.1c0.1,0.5,0,1.1-0.1,1.6c0.4,1.8,0.6,3.6,0.6,5.5
				c0.4,0.2,0.7,0.5,1,0.8c0.4,0.1,0.8,0.3,1.2,0.4c0.3,0,0.5,0,0.8,0c0.2,0,0.4,0.1,0.6,0.1c0.3-0.4,0.6-0.8,1-1.1
				c0.1,0,0.1-0.1,0.2-0.1c0.1-0.4,0.3-0.7,0.6-1c0-0.3-0.1-0.7-0.1-1c0-0.5,0-0.9,0-1.4c0-0.4,0.1-0.9,0.2-1.3l0,0
				c0-0.4,0.2-0.8,0.3-1.1c0-0.2,0.1-0.5,0.1-0.7s0-0.3,0-0.5c-0.1-0.5-0.1-0.9-0.2-1.4c0-0.2,0-0.5,0-0.7c-0.1-0.2-0.1-0.4-0.1-0.6
				c0-0.5-0.1-0.9-0.2-1.3c-0.1-0.5,0-0.9,0.1-1.4c-0.1-0.6-0.1-1.3-0.1-1.9c0-0.3,0.1-0.6,0.2-0.9c-0.1-0.8,0.1-1.5,0.5-2.2
				c0-0.1,0.1-0.1,0.1-0.2c-0.1-1.3,0.5-2.6,1.5-3.5c0.4-0.9,1.2-1.6,2.5-1.5c0.6,0.1,1,0.3,1.3,0.5c0.4,0.2,0.8,0.6,1,1
				c0.7,0.5,1.2,1.3,1.3,2.2c0.2,0.4,0.3,0.9,0.4,1.4c0.1,0.2,0.2,0.5,0.2,0.7c0.1,0.7,0.3,1.4,0.3,2.2c0.2,0.4,0.4,0.8,0.4,1.1
				c0,0.6,0.2,1.2,0.3,1.7c0.1,1-0.1,1.8-0.2,2.8v0.1c0.2,0.6,0.3,1.3,0.3,1.9c0,0.3-0.1,0.5-0.2,0.8c0,0.3,0,0.7-0.1,1
				c0.4,1.1,0.3,2.3-0.2,3.4c0,0.6-0.1,1.2-0.3,1.8c0.2,1.3-0.2,2.6-1.1,3.5c0.2,1.1-0.1,2.2-0.7,3.1c0,0.4-0.1,0.9-0.3,1.3
				c0.1,0.4,0.1,0.7,0.1,1.1c0,0.8-0.5,1.6-1,2.2c0,0.4-0.1,0.8-0.2,1.3c0.1,0.3,0.1,0.7,0,1l0,0c-0.1,0.7-0.3,1.3-0.7,1.8
				c-0.1,0.6-0.2,1.1-0.5,1.6c0.2,0.8,0.2,1.6,0,2.4c0,0.6,0,1.2,0,1.8c0.1,0.3,0.3,0.5,0.4,0.8c0.7,0.7,1.1,1.6,1.5,2.5
				c0.6,0.3,1.1,0.7,1.6,1.1c0.7-0.3,1.5-0.4,2.4-0.5c0.5-1,1.1-2,1.8-2.9c0.1-1.1,0.3-2.1,0.5-3.1c0-0.4-0.1-0.7,0-1.1
				c-0.1-0.7,0-1.4,0.3-2.1c0-0.5,0-1,0-1.5c0-0.3,0.1-0.7,0.1-1c-0.1-0.3-0.1-0.5-0.2-0.8c0-0.7,0-1.5-0.1-2.2
				c0-0.6,0.2-1.2,0.3-1.7c0-0.2,0-0.5,0-0.7c-0.1-0.5-0.1-0.9-0.1-1.4c-0.2-1.1-0.3-2.2-0.1-3.3c-0.1-0.7-0.1-1.5,0-2.2
				c-0.1-0.6-0.1-1.3-0.1-1.9c-0.1-0.5-0.2-1-0.2-1.6c0-0.1,0-0.2,0-0.3c0-0.5,0-1,0.1-1.4c0-0.5,0-0.9,0.2-1.4c0-0.4-0.1-0.8,0-1.2
				c-0.1-0.5-0.2-1.1-0.1-1.6c0-0.3,0-0.6,0-0.8l0,0c0-0.5,0.2-0.9,0.4-1.3c-0.3-3.9,1.9-8.1,6.2-8.9c0.9-0.2,1.8-0.3,2.9-0.2
				c0.2,0,0.4,0.1,0.7,0.1c0.5-0.1,0.9-0.1,1.4-0.1c-2.8-0.1,0.4-0.1,0.6-0.1c1.2,0,1.7,0.1,2.8,0.3c1.1,0.3,2.1,0.6,3.2,1
				c0.2,0.1,0.7,0.4,1.1,0.5c0.1,0,0.2,0,0.4,0c1.5,0,2.8,0.3,4.2,0.8c0.1,0.1,0.3,0.1,0.4,0.2c1.7-0.3,3.4-0.4,5.1-0.2
				c0.6,0.1,1.1,0.1,1.6,0.2c1.1-0.2,2.2-0.2,3.3-0.2c1.9-0.7,4-1.1,6-1.2c1.5-0.8,3.1-1.4,4.8-1.9c0.6-0.3,1.3-0.5,2-0.7
				c0.5-0.2,1-0.4,1.6-0.6c0.8-0.9,1.7-1.8,2.7-2.6c1-1.7,2.4-3.3,3.9-4.7C152.4,121.6,151.9,120.2,151.4,118.8z"/>
			<g>
				<path class="st29" d="M58.6,102.2c0.1-0.1,0.1-0.2,0.2-0.3c0.2-1.1,1-1.3,1.9-1.3c2.2,0,3.9,0.9,5.3,2.6
					c1.1,1.4,2.3,2.8,3.4,4.2c1.7,2,3.7,3.6,6.1,4.7c1.1,0.5,2.2,0.9,3.3,1.2c1,0.3,2,0.4,3.1,0.6c1.5,0.2,3.1,0.4,4.6,0.7
					c1.6,0.3,3.2,0.8,4.5,2c0.4,0.4,0.9,0.8,1.3,1.1c0.7,0.4,1.5,0.2,2.3,0c0.4-0.1,0.9-0.1,1.3-0.2c1-0.2,2,0.1,2.9,0.2
					c0.5,0,0.9,0.1,1.4,0.1c1.2,0,2.4,0.3,3.5,0.7c0.6,0.2,1.2,0.6,1.7,0.8c0.9,0.4,1.8,0.7,2.6,1.1c0.2,0.1,0.5,0.3,0.7,0.4
					c0.6,0.6,1.2,1.2,1.8,1.8c0.3,0.3,0.6,0.3,0.9,0.3c4.4-0.1,8.4-1.4,12.1-3.7c1.8-1.1,3.6-2.1,5.4-3.1c1.5-0.8,3.2-1.4,4.9-1.5
					c1.2-0.1,2.3,0.2,3.4,0.3c1.3,0.1,2.2,0.9,3.1,1.8c0.2,0.2,0.4,0.5,0.6,0.8c0.3,0.4,0.5,0.4,1,0.3c1.3-0.3,2.6-0.8,4-0.9
					c1-0.1,2,0,3,0.1c0.6,0.1,1.1,0.5,1.6,0.8s1,0.7,1.4,1.1c1.2,1.3,1.4,2.7,0.9,4.3c-0.6,1.9-1.7,3.5-3.3,4.8
					c-1.7,1.3-3.4,2.5-5.4,3.3c-2.5,1-5.1,1.7-7.7,2.2c-1.8,0.3-3.6,0.6-5.3,0.9c-1.1,0.1-2.2,0.2-3.3,0.2c-1.3,0-2.7,0.1-4,0.1
					s-2.5-0.2-3.8-0.3c-2-0.3-4-0.6-5.9-1c-2.4-0.5-4.8-1.1-7.3-1.3c-0.8-0.1-1.7-0.1-2.5-0.1c-1.1,0-1.9,0.8-2.7,1.5
					c-1.3,1.2-2.1,2.6-2.5,4.3c-0.6,2.2-1,4.5-1,6.8c0,0.9,0,1.8,0,2.7c0,0.6,0,1.2,0,1.9c0,1.4,0,2.8,0,4.2c0,1.1,0.1,2.3,0.1,3.4
					c0,1,0.1,2,0,3.1c0,1.3,0,2.6-0.1,3.9c-0.1,2.4-0.2,4.8-0.4,7.1c-0.1,1.6-0.6,3.2-1.5,4.5c-0.7,1-1.7,1.6-3,1.4
					c-1-0.2-1.7-0.8-2.3-1.6c-0.9-1.1-1.3-2.4-1.4-3.8c-0.2-2.2,0-4.4,0.6-6.5c0.4-1.4,0.8-2.9,1.2-4.3c0.4-1.5,0.8-3,1.2-4.6
					c0.3-1,0.6-2,0.7-3c0.3-1.7,0.6-3.4,0.8-5.2c0.2-1.4,0.3-2.9,0.3-4.3c0.1-1.2,0-2.5,0-3.7c-0.2-2.7-0.5-5.4-1.5-7.9
					c-0.6-1.4-1.5-2.6-3-3.3c-0.3-0.1-0.6-0.3-0.8-0.2c-0.4,0.2-0.9,0.3-1.1,0.7c-0.6,0.9-1.2,1.9-1.7,2.9c-0.7,1.5-0.9,3.1-1,4.8
					c0,1.1,0.1,2.1,0.1,3.2c0,1,0,1.9,0.1,2.9c0,0.6,0.1,1.2,0,1.8c0,1.1,0.1,2.2-0.1,3.3c-0.2,1.3-0.5,2.6-1.5,3.5
					c-1.2,1.3-3.3,1-4.2-0.5c-0.5-0.9-0.8-1.9-0.8-3c0-1-0.1-1.9-0.1-2.9c0-1.4,0-2.8,0-4.2c0-1.2,0-2.4,0-3.6c0-2,0-4-0.2-5.9
					c-0.3-3-0.9-5.9-2.4-8.6c-1.2-2.2-2.9-4.1-4.9-5.6c-2.1-1.6-4.3-3-6.5-4.5c-2.6-1.8-4.6-4-5.6-7c-0.3-0.8-0.4-1.7-0.5-2.6
					c0-0.2-0.1-0.3-0.1-0.5C58.6,102.7,58.6,102.4,58.6,102.2z M92,117.9c-0.2-0.2-0.3-0.3-0.4-0.4c-1.2-1.1-2.7-1.8-4.4-2.2
					c-1.6-0.3-3.2-0.5-4.8-0.7c-1.8-0.3-3.6-0.6-5.4-1.2c-3.5-1.2-6.4-3.4-8.6-6.3c-1.1-1.4-2.2-2.8-3.3-4.1c-1-1.2-2.3-1.9-3.9-2
					c-0.4,0-0.9,0-1.1,0.4c-0.3,0.6-0.5,1.3-0.3,1.9c0.5,2.2,1.6,4,3.1,5.5c0.5,0.5,1.2,1,1.6,1.6c0.5,0.6,1,1,1.6,1.3
					c0.9,0.6,1.7,1.3,2.6,1.9c1.7,1.3,3.5,2.6,4.9,4.3c3.8,4.4,5.7,9.6,6,15.4c0.1,1.8,0,3.5,0,5.3c0,1.9-0.1,3.8-0.2,5.7
					c0,1.1-0.1,2.2-0.1,3.3c0,0.8,0.1,1.6,0.3,2.4c0.2,1,1.2,1.7,2.2,1.8s1.6-0.5,2-1.3c0.7-1.3,0.8-2.8,0.8-4.3c0-1,0-2.1-0.1-3.1
					c0-1.1-0.1-2.3-0.2-3.4c0-1.2-0.1-2.4,0-3.6c0.1-1.1,0.4-2.2,0.7-3.3c0.5-1.8,1.4-3.3,2.8-4.5c0.3-0.2,0.6-0.4,1-0.4
					c0.6,0.1,1.3,0.2,1.9,0.5c1.6,0.8,2.6,2.2,3.1,3.8c1,3.1,1.3,6.3,1.3,9.5c0,1.3-0.1,2.6-0.1,3.8c-0.2,3.5-0.9,6.9-1.7,10.3
					c-0.3,1.1-0.6,2.2-0.9,3.3c-0.4,1.5-0.8,2.9-1.2,4.4c-0.4,1.5-1,3-1,4.6c0,0.9-0.1,1.9-0.1,2.8c0.1,1.6,0.7,3,1.9,4.1
					c1.2,1.2,2.6,1,3.7-0.3c1-1.3,1.3-2.9,1.5-4.5c0.2-2.9,0.4-5.8,0.6-8.7c0-0.7,0.4-1.3,0-2v-0.1c0-1.4,0-2.8-0.1-4.2
					c0-1.8-0.1-3.7-0.1-5.5c0-2.2,0-4.3,0.1-6.5c0.1-2.6,0.5-5.1,1.5-7.5c0.8-1.9,1.9-3.4,3.9-4.2c1.8-0.8,3.7-1.2,5.6-1.1
					c2,0.1,4.1,0.4,6.1,0.6c2.7,0.3,5.4,0.8,8.1,1.1c3,0.4,6.1,0.5,9.1,0.3c1.9-0.1,3.7-0.5,5.5-0.9c3.2-0.7,6.2-1.9,8.9-3.7
					c0.4-0.3,0.8-0.4,1.2-0.7c0.5-0.4,1-1,1.5-1.4c1.4-1.4,2.3-3,2.4-5c0-0.9-0.3-1.6-1-2.1c-0.4-0.3-0.7-0.4-1.2-0.5
					s-1-0.3-1.5-0.4c-1.2-0.2-2.5-0.2-3.7,0.1c-1.9,0.4-3.7,0.8-5.5,1.6c-1.1,0.5-2.2,0.9-3.2,1.3c-0.1,0-0.2,0-0.3,0
					c0-0.2,0.1-0.2,0.2-0.3c1.6-0.7,3.1-1.4,4.7-2c0.1,0,0.2-0.2,0.2-0.3c0-0.2-0.1-0.4-0.2-0.5c-0.9-0.9-1.7-2-3.1-2h-0.1
					c-1.6-0.5-3.3-0.5-4.9,0c-1.5,0.4-2.8,1.2-4.2,1.9c-2.3,1.3-4.4,2.7-6.8,3.7c-2.6,1.1-5.3,1.8-8.1,1.9c-0.5,0-1.1,0.1-1.6,0.2
					c0.2,0.5,0.4,0.9,0.6,1.3c0,0-0.1,0-0.1,0.1c-0.2-0.3-0.4-0.6-0.6-0.9c-1.7-2.2-3.9-3.6-6.4-4.6c-1-0.3-2-0.8-3-0.8
					c-2.4-0.2-4.9-0.4-7.4-0.2c-1.3,0.1-2.7,0.2-4,0.3c-0.4,0-0.8,0-1.2,0.1v-0.1C90,118.4,90.9,118.2,92,117.9z"/>
			</g>
		</g>
		<g>
			<path class="st29" d="M183,118.4c0.6-0.2,1.2-0.6,1.7-1c0.3-0.1,0.6-0.2,0.8-0.3c0.3,0,0.6,0,1,0c0.3,0,0.5-0.1,0.7-0.1
				c0.5,0.4,1.1,0.6,1.8,0.6c0.3,0.3,0.7,0.4,1.3,0.4c0.7-0.1,1.1-0.5,1.4-1c0.4-0.3,0.7-0.7,0.9-1.2c0.8-0.2,1.6-0.5,2.4-0.9
				c1.1,0.3,2.1,0.4,3.2,0.3c0.4,0.5,1,0.8,1.7,0.9c0.3,0.2,0.6,0.3,0.9,0.5c0.4,0.8,1.1,1.4,2,1.5c0.7,0.7,1.5,1.3,2.4,1.6
				c0.6,0.5,1.3,1,2.1,1.2c0.3,0.2,0.7,0.3,1.1,0.4c0.5,0.4,1,0.7,1.7,0.7c0.1,0,0.2,0,0.3,0c0.3,0.1,0.6,0.2,0.9,0.2c0,0,0,0,0.1,0
				c0.5,0.3,1.1,0.5,1.8,0.4c0.5-0.1,1-0.3,1.3-0.5c0.6-0.4,1.1-1,1.3-1.7c0,0,0.1,0,0.1-0.1c0.7-0.1,1.2-0.4,1.6-0.8
				c0.2-0.1,0.4-0.2,0.7-0.3c0.3-0.1,0.6-0.3,0.9-0.4c0.4-0.1,0.8-0.3,1.1-0.4c0.6-0.1,1.2-0.3,1.8-0.6l0,0c0.6,0.1,1.2,0.2,1.8,0.1
				c0.1,0,0.1,0,0.2,0c0.2,0,0.4,0,0.7,0c0.2,0,0.5,0,0.7,0c0.4,0.2,1,0.4,1.6,0.3c0.2,0,0.4-0.1,0.5-0.1c0.8-0.2,1.4-0.6,1.8-1.3
				c0.4-0.3,0.7-0.6,1-0.9c0.3-0.1,0.6-0.2,0.8-0.3c0.5-0.1,1-0.3,1.4-0.5c0.2,0,0.4,0,0.6,0c0.4,0,0.7-0.1,1.1-0.2
				c0.1,0,0.2,0,0.3,0c0.7-0.1,1.3-0.3,1.8-0.5c0.1,0,0.2,0,0.4,0c0.6-0.1,1.2-0.2,1.7-0.5c3.5-1.1,6.4-3.6,8.3-7
				c0.3-0.4,0.6-0.8,0.8-1.2l0.2-0.2c0.3-0.4,0.5-0.8,0.7-1.2c0.2-0.2,0.4-0.4,0.6-0.6c0.4-0.2,0.8-0.5,1.1-0.7
				c0.2-0.1,0.3-0.2,0.5-0.3c0.1,0,0.3,0,0.4,0c0.2,0,0.4-0.1,0.6-0.1c0.3,0,0.5,0,0.8,0c0.3,1,0.8,1.9,1.3,2.7
				c-0.1,0.4-0.1,0.9-0.1,1.3c-0.3,0.3-0.5,0.7-0.8,1c-0.9,1.2-1.6,2.5-2.3,3.9c-1,0.6-1.7,1.4-2.3,2.4c-0.7,0.4-1.3,0.9-1.9,1.5
				c-2.3,1.6-4.2,3.9-5.5,6.6c-0.9,1.8-1.7,3.7-2.1,5.8c-0.8,0.4-1.6,0.8-2.4,1.2c-0.4,0.2-0.8,0.6-1,1c-1.1-0.3-2.1-0.6-3.2-0.7
				c0,0,0-0.1-0.1-0.1c-0.3-0.8-0.9-1.5-1.9-1.3c-0.4,0.1-0.7,0.2-1,0.5c-0.3,0.2-0.6,0.5-0.7,0.9c-0.2,0.2-0.4,0.4-0.5,0.6
				c-0.2-0.1-0.4-0.1-0.7-0.1c-1.1,0-1.8,0.8-2.1,1.8c-1.3,0.3-2.7,0.7-4,0.7c-0.7-0.6-1.5-1.1-2.4-1.3c-0.7-0.2-1.4-0.3-2.2-0.2
				c-0.2,0-0.3,0.1-0.5,0.1c-0.4-0.1-0.7-0.1-1.1-0.1c2.2-0.1-0.3-0.1-0.4-0.1c-0.9,0-1.3,0.1-2.1,0.3s-1.6,0.5-2.4,0.9
				c-0.2,0.1-0.5,0.3-0.9,0.5c-0.1,0-0.2,0-0.3,0c-1.1,0-2.2,0.3-3.2,0.8c-0.1,0-0.2,0.1-0.3,0.2c-1.3-0.3-2.6-0.3-3.9-0.2
				c-0.4,0.1-0.8,0.1-1.2,0.2c-0.8-0.1-1.7-0.2-2.5-0.2c-1.5-0.6-3-1-4.6-1.1c-1.2-0.7-2.4-1.3-3.6-1.7c-0.5-0.2-1-0.4-1.5-0.6
				c-0.4-0.2-0.8-0.4-1.2-0.5c-0.6-0.8-1.3-1.6-2-2.3c-0.8-1.6-1.8-3-3-4.3C182.2,120.9,182.6,119.7,183,118.4z"/>
			<g>
				<path class="st29" d="M229.3,127.4c0.4-0.3,0.9-0.4,1.4-0.5c0.2,0,0.5,0.2,0.7,0.3c0.4,0.5,0.8,1,1.2,1.5
					c-0.3,0-0.5-0.1-0.8-0.1c-0.1-0.2-0.2-0.4-0.4-0.7s-0.6-0.5-0.9-0.6c-0.2-0.1-0.4,0.1-0.6,0.2c-0.8,0.4-1.4,1.1-1.8,1.9
					c-0.2-0.1-0.4-0.2-0.6-0.2C228,128.5,228.5,127.8,229.3,127.4z"/>
				<path class="st29" d="M182.5,118.7c0.3-0.4,0.7-0.7,1.1-1c0.4-0.3,0.8-0.7,1.3-0.7c0.8-0.2,1.6-0.3,2.3-0.1c1,0.2,2,0.5,3.1,0.8
					c0.4,0.1,0.5,0.1,0.7-0.3c0.1-0.3,0.3-0.5,0.5-0.8c0.6-0.8,1.3-1.5,2.3-1.7c0.9-0.1,1.7-0.4,2.6-0.3c1.4,0.1,2.6,0.6,3.8,1.4
					c1.4,0.9,2.8,1.8,4.1,2.8c2.8,2.1,5.9,3.2,9.2,3.4c0.3,0,0.5,0,0.7-0.3c0.4-0.6,0.9-1.1,1.4-1.7c0.1-0.2,0.3-0.3,0.5-0.4
					c0.7-0.3,1.3-0.6,2-1c0.5-0.2,0.9-0.6,1.3-0.8c0.9-0.3,1.8-0.6,2.7-0.6c0.3,0,0.7,0,1-0.1c0.7-0.1,1.5-0.4,2.2-0.2
					c0.3,0.1,0.7,0.1,1,0.1c0.6,0.2,1.2,0.4,1.7,0c0.4-0.3,0.7-0.6,1-1c1-1.1,2.2-1.5,3.4-1.8s2.3-0.4,3.5-0.6
					c0.8-0.1,1.6-0.3,2.4-0.5c0.9-0.3,1.7-0.7,2.5-1.1c1.8-1,3.3-2.4,4.6-4.3c0.9-1.3,1.7-2.5,2.6-3.8c1-1.5,2.4-2.3,4-2.4
					c0.7,0,1.3,0.2,1.4,1.2c0,0.1,0.1,0.2,0.1,0.3c0,0.2,0,0.4,0.1,0.6c0,0.1-0.1,0.3-0.1,0.4c-0.1,0.8-0.2,1.6-0.4,2.4
					c-0.8,2.7-2.3,4.8-4.3,6.4c-1.7,1.4-3.3,2.7-5,4.1c-1.6,1.4-2.8,3-3.7,5.1c-0.7,1.5-1.1,3.2-1.4,4.8c-0.2,0.1-0.5,0.2-0.7,0.4
					c0.7-3.6,2-6.9,4.1-9.8c1.1-1.5,2.4-2.7,3.8-3.9c0.7-0.6,1.3-1.2,2-1.8c0.5-0.4,0.9-0.7,1.2-1.2c0.4-0.5,0.8-1,1.2-1.5
					c1.2-1.4,2-3.1,2.4-5c0.1-0.6,0-1.2-0.2-1.8c-0.2-0.4-0.5-0.4-0.9-0.4c-1.2,0.1-2.2,0.7-3,1.8c-0.9,1.2-1.7,2.5-2.5,3.8
					c-1.7,2.7-3.9,4.6-6.6,5.7c-1.3,0.6-2.7,0.8-4.1,1.1c-1.2,0.2-2.4,0.4-3.6,0.7c-1.2,0.3-2.4,0.9-3.3,2c-0.1,0.1-0.2,0.2-0.3,0.4
					c0.8,0.2,1.5,0.4,2.2,0.6v0.1c-0.3,0-0.6,0-0.9,0c-1-0.1-2-0.1-3.1-0.2c-1.9-0.2-3.7,0-5.6,0.2c-0.8,0.1-1.5,0.5-2.3,0.8
					c-2,0.8-3.6,2.2-4.9,4.1c-0.2,0.3-0.3,0.5-0.5,0.8l-0.1-0.1c0.1-0.4,0.3-0.8,0.4-1.2c-0.4-0.1-0.9-0.1-1.3-0.1
					c-2.1-0.2-4.2-0.8-6.2-1.8c-1.8-0.9-3.5-2.2-5.2-3.3c-1-0.7-2-1.4-3.2-1.8s-2.5-0.4-3.7,0h-0.1c-1.1,0-1.7,1-2.4,1.8
					c-0.1,0.1-0.1,0.3-0.2,0.4c0,0.1,0.1,0.3,0.2,0.3c1.2,0.6,2.4,1.2,3.6,1.9c0.1,0,0.1,0.1,0.1,0.3c-0.1,0-0.1,0-0.2,0
					c-0.8-0.4-1.7-0.8-2.5-1.2c-1.3-0.7-2.8-1.1-4.2-1.4c-0.9-0.2-1.9-0.3-2.8-0.1c-0.4,0.1-0.7,0.3-1.1,0.4
					c-0.3,0.1-0.6,0.2-0.9,0.5c-0.6,0.5-0.8,1.1-0.8,1.9c0.1,1.8,0.7,3.3,1.8,4.6c0.4,0.4,0.7,0.9,1.1,1.3c0.3,0.3,0.6,0.4,0.9,0.6
					c2.1,1.7,4.4,2.7,6.8,3.4c1.4,0.4,2.8,0.7,4.2,0.8c2.3,0.2,4.7,0.1,7-0.2c2.1-0.3,4.1-0.7,6.2-1c1.5-0.2,3.1-0.5,4.7-0.6
					c1.5-0.1,2.9,0.3,4.3,1c0.7,0.3,1.2,0.8,1.7,1.4c-0.2,0-0.5,0-0.7,0c-0.5-0.6-1.1-1.1-1.8-1.2c-0.6,0-1.3,0-1.9,0.1
					c-1.9,0.2-3.7,0.8-5.6,1.2c-1.5,0.4-3,0.6-4.5,0.9c-1,0.2-1.9,0.3-2.9,0.3s-2,0-3,0c-0.9,0-1.7-0.1-2.5-0.2
					c-1.4-0.2-2.7-0.5-4.1-0.8c-2-0.4-4-1.1-5.9-2c-1.5-0.7-2.8-1.8-4.1-3c-1.2-1.1-2-2.6-2.5-4.3
					C181.4,121.2,181.6,119.9,182.5,118.7z"/>
			</g>
		</g>
	</g>
</g>
<g id="Layer_10">
	<circle class="st11" cx="839.5" cy="461.5" r="140.5"/>
	<path class="st37" d="M886.9,383.8c-27.6,0-49.9,20.6-49.9,46.1c0,18.9,12.4,35.2,30.1,42.3c3.4-1.2,6.9-2.1,10.3-2.8
		c0.3-0.3,0.8-0.5,1.3-0.6c9-1.7,17.8-5.8,26.6-4.4c0.2,0,0.3,0,0.5,0c4.2,0,8.3,0.2,12.3,1.5c11.4-8.4,18.7-21.4,18.7-35.9
		C936.8,404.4,914.5,383.8,886.9,383.8z"/>
	<path class="st38" d="M856.6,482.7c-0.2-5.1,33.9-29.3,73-12.8"/>
	<path class="st37" d="M776.7,383.8c-27.6,0-49.9,20.6-49.9,46.1c0,15.8,8.6,29.8,21.8,38c2.2-0.6,4.4-1,6.8-1.1
		c8.2-3.6,17.9-1.1,26.4,3c4.7-0.4,9,0.8,12.8,3c18.7-6.7,31.9-23.4,31.9-43C826.6,404.4,804.3,383.8,776.7,383.8z"/>
	<path class="st38" d="M733.5,473.8c1.1-4.9,40.5-19,73.8,7.4"/>
	<path class="st39" d="M850.5,479.9"/>
	<g>
		<g id="XMLID_15_">
			<g>
				<path class="st17" d="M918.2,428.8c-0.6,3.2-1.9,6-3.9,8.5c-1.2,1.6-2.7,3-4.2,4.3c-2.1,1.8-4.2,3.4-6.5,5
					c-1.2,0.8-2.3,1.7-3.5,2.5c-3,2-5.8,4.2-8.5,6.4c-2.1,1.7-4,3.6-5.8,5.6c-0.3,0.3-0.3,0.3-0.5,0c-0.8-1.3-1.6-2.5-2.4-3.8
					c-0.6-0.8-1.1-1.7-1.8-2.5c-1-1.3-1.9-2.5-3-3.7c-1.6-1.8-3.2-3.7-4.8-5.4c-0.9-1-1.8-2-2.7-3c-1.3-1.5-2.7-2.9-3.8-4.5
					c-1.9-2.5-3.6-5.2-4.6-8.2c-0.4-1.1-0.7-2.3-0.9-3.5c-0.3-1.5-0.2-3-0.2-4.4c0-2.2,0.6-4.2,1.5-6.1c0.8-1.6,1.9-3.1,3.3-4.3
					c1.4-1.3,3.1-2.3,4.9-3c1.4-0.5,2.9-0.8,4.4-0.8c0.8,0,1.6,0,2.3,0.1c3.1,0.5,5.8,1.7,8.1,3.9c2,1.9,3.3,4.3,4.1,6.9
					c0.1,0.4,0.3,0.8,0.5,1.3c1.1-1.6,1.9-3.2,3.3-4.5c1.4-1.4,3-2.6,4.8-3.3c1.7-0.7,3.6-1.1,5.5-1.2c3.3,0,6.2,0.9,8.9,2.9
					c1.2,0.9,2.3,2,3.1,3.2c1,1.5,1.8,3,2.3,4.8C918.7,424.2,918.7,426.5,918.2,428.8z"/>
			</g>
			<g>
				<path class="st39" d="M890.3,420c-0.2-0.4-0.3-0.8-0.5-1.3c-0.8-2.6-2.1-5-4.1-6.9c-2.3-2.2-5-3.4-8.1-3.9
					c-0.8-0.1-1.6-0.1-2.3-0.1c-1.5,0-3,0.3-4.4,0.8c-1.8,0.7-3.5,1.6-4.9,3c-1.4,1.2-2.5,2.7-3.3,4.3c-0.9,1.9-1.5,3.9-1.5,6.1
					c0,1.5-0.1,3,0.2,4.4c0.2,1.2,0.5,2.4,0.9,3.5c1,3,2.7,5.6,4.6,8.2c1.2,1.6,2.5,3.1,3.8,4.5c0.9,1,1.8,2,2.7,3
					c1.7,1.8,3.2,3.6,4.8,5.4c1,1.2,2,2.5,3,3.7c0.6,0.8,1.2,1.6,1.8,2.5c0.8,1.2,1.6,2.5,2.4,3.8c0.2,0.3,0.3,0.3,0.5,0
					c1.8-2,3.8-3.9,5.8-5.6c2.7-2.3,5.6-4.4,8.5-6.4c1.2-0.8,2.3-1.7,3.5-2.5c2.2-1.6,4.4-3.2,6.5-5c1.5-1.3,2.9-2.7,4.2-4.3
					c2-2.5,3.3-5.4,3.9-8.5c0.4-2.3,0.5-4.6-0.1-6.9c-0.5-1.7-1.2-3.3-2.3-4.8c-0.9-1.2-1.9-2.3-3.1-3.2c-2.6-1.9-5.6-2.9-8.9-2.9
					c-1.9,0-3.7,0.4-5.5,1.2c-1.8,0.8-3.4,1.9-4.8,3.3C892.3,416.8,891.4,418.5,890.3,420z"/>
			</g>
		</g>
	</g>
	<g>
		<g id="XMLID_14_">
			<g>
				<path class="st17" d="M799.2,417.7c0.1,3.2-0.6,6.3-1.9,9.2c-0.9,1.8-1.9,3.5-3.1,5.1c-1.6,2.2-3.4,4.2-5.2,6.3
					c-1,1.1-1.9,2.1-2.8,3.2c-2.4,2.6-4.7,5.3-6.9,8.2c-1.7,2.1-3.2,4.4-4.5,6.7c-0.2,0.3-0.3,0.3-0.5,0.1c-1-1.1-2.1-2.1-3.1-3.1
					c-0.7-0.7-1.5-1.4-2.3-2c-1.2-1-2.4-2-3.7-3c-1.9-1.4-3.9-2.9-5.9-4.3c-1.1-0.8-2.2-1.6-3.3-2.4c-1.6-1.1-3.2-2.3-4.7-3.6
					c-2.4-2-4.6-4.2-6.3-6.9c-0.6-1-1.1-2.1-1.6-3.2c-0.6-1.4-0.9-2.8-1.2-4.3c-0.4-2.1-0.3-4.2,0.2-6.3c0.4-1.8,1.2-3.4,2.2-4.9
					c1.1-1.6,2.5-2.9,4.2-4c1.3-0.8,2.6-1.4,4.1-1.7c0.8-0.2,1.5-0.4,2.3-0.4c3.1-0.2,6.1,0.4,8.8,2c2.4,1.4,4.2,3.5,5.5,5.9
					c0.2,0.4,0.5,0.7,0.7,1.1c0.7-1.8,1.2-3.5,2.2-5.1c1.1-1.7,2.4-3.1,4-4.3c1.5-1.1,3.2-1.9,5.1-2.3c3.2-0.7,6.3-0.4,9.3,0.9
					c1.4,0.6,2.6,1.4,3.8,2.4c1.3,1.2,2.4,2.6,3.3,4.2C798.7,413.1,799.1,415.4,799.2,417.7z"/>
			</g>
			<g>
				<path class="st39" d="M770,415.2c-0.3-0.4-0.5-0.8-0.7-1.1c-1.4-2.4-3.1-4.4-5.5-5.9c-2.7-1.6-5.7-2.3-8.8-2
					c-0.8,0.1-1.5,0.3-2.3,0.4c-1.5,0.3-2.8,0.9-4.1,1.7c-1.6,1.1-3,2.4-4.2,4c-1,1.5-1.8,3.1-2.2,4.9c-0.5,2.1-0.6,4.2-0.2,6.3
					c0.3,1.5,0.6,2.9,1.2,4.3c0.5,1.1,1,2.2,1.6,3.2c1.7,2.7,3.9,4.9,6.3,6.9c1.5,1.3,3.1,2.4,4.7,3.6c1.1,0.8,2.2,1.6,3.3,2.4
					c2,1.4,3.9,2.8,5.9,4.3c1.3,1,2.5,2,3.7,3c0.8,0.6,1.5,1.3,2.3,2c1.1,1,2.1,2.1,3.1,3.1c0.3,0.3,0.3,0.3,0.5-0.1
					c1.3-2.4,2.8-4.6,4.5-6.7c2.2-2.8,4.5-5.6,6.9-8.2c1-1,1.9-2.1,2.8-3.2c1.8-2,3.6-4.1,5.2-6.3c1.2-1.6,2.3-3.3,3.1-5.1
					c1.4-2.9,2.1-6,1.9-9.2c-0.1-2.3-0.5-4.6-1.6-6.7c-0.8-1.6-1.9-3-3.3-4.2c-1.1-1-2.4-1.8-3.8-2.4c-3-1.3-6.1-1.6-9.3-0.9
					c-1.8,0.4-3.5,1.2-5.1,2.3c-1.6,1.2-2.9,2.6-4,4.3C771.2,411.7,770.7,413.5,770,415.2z"/>
			</g>
		</g>
	</g>
	<path class="st39" d="M772.8,528.2c36.7,52,91.8,60,124.3-11"/>
</g>
<g id="Layer_27">
	<ellipse class="st11" cx="392.9" cy="169.7" rx="114.9" ry="108.7"/>
	<g id="XMLID_23_">
		<g>
			<path class="st0" d="M394.9,130.6c-31.8-7.1-65,9.5-70.7,14.2c-0.2-1.5-0.3-3-0.3-4.6c0-19.1,16.2-34.5,36.2-34.5
				C376.6,105.7,390.5,116.2,394.9,130.6z"/>
			<path class="st40" d="M324.2,144.9c5.7-4.8,38.9-21.3,70.7-14.2c0.9,3.1,1.4,6.3,1.4,9.6c0,19.1-16.2,34.5-36.2,34.5
				C341.7,174.8,326.5,161.8,324.2,144.9z"/>
		</g>
		<g>
			<path class="st4" d="M394.9,130.6c0.9,3.1,1.4,6.3,1.4,9.6c0,19.1-16.2,34.5-36.2,34.5c-18.4,0-33.5-13-35.9-29.9
				c-0.2-1.5-0.3-3-0.3-4.6c0-19.1,16.2-34.5,36.2-34.5C376.6,105.7,390.5,116.2,394.9,130.6z"/>
			<path class="st4" d="M323.3,145.9c0-0.2,0.3-0.6,0.9-1c5.7-4.8,38.9-21.3,70.7-14.2c0.4,0.1,0.8,0.2,1.3,0.3"/>
		</g>
	</g>
	<g id="XMLID_22_">
		<g>
			<path class="st2" d="M467.6,139.9c0,0.1,0,0.2,0,0.3c0,19.1-16.2,34.5-36.2,34.5s-36.2-15.5-36.2-34.5c0-3.4,0.5-6.7,1.5-9.8
				C411.4,126.6,440.9,125.3,467.6,139.9z"/>
			<path class="st0" d="M431.4,105.7c19.9,0,36,15.3,36.2,34.2c-26.8-14.6-56.2-13.3-71-9.5C401.1,116.1,415,105.7,431.4,105.7z"/>
		</g>
		<g>
			<path class="st4" d="M467.6,139.9c0,0.1,0,0.2,0,0.3c0,19.1-16.2,34.5-36.2,34.5s-36.2-15.5-36.2-34.5c0-3.4,0.5-6.7,1.5-9.8
				c4.4-14.3,18.3-24.7,34.7-24.7C451.3,105.7,467.4,121,467.6,139.9z"/>
			<path class="st4" d="M395.8,130.6c0.3-0.1,0.5-0.1,0.8-0.2c14.8-3.8,44.2-5.1,71,9.5c0.1,0,0.1,0.1,0.2,0.1"/>
		</g>
	</g>
	<path class="st4" d="M328.4,108.8"/>
	<path class="st4" d="M363.3,90.6"/>
	<path class="st4" d="M436,85.7"/>
	<path class="st4" d="M469.7,105.8"/>
	<path class="st41" d="M372.3,127.7c3.3,9.3-2.1,19.3-12,22.4c-9.9,3.1-20.5-2-23.8-11.3"/>
	<path class="st41" d="M452,132.6c-1.7,9.7-11.3,16.2-21.6,14.7c-10.3-1.6-17.3-10.7-15.6-20.3"/>
	<path class="st39" d="M402.7,181.4"/>
	<g>
		<g id="XMLID_21_">
			<g>
				<path class="st17" d="M474.1,266.9c-1.2,2.2-2.9,4-5.1,5.4c-1.3,0.9-2.8,1.6-4.3,2.2c-2,0.9-4.1,1.6-6.3,2.2
					c-1.1,0.3-2.2,0.7-3.3,1.1c-2.8,0.8-5.5,1.8-8.2,2.9c-2,0.8-4,1.8-5.9,2.8c-0.3,0.2-0.3,0.1-0.4-0.1c-0.3-1.1-0.6-2.2-1-3.3
					c-0.2-0.7-0.5-1.5-0.8-2.2c-0.5-1.2-0.9-2.3-1.5-3.4c-0.8-1.7-1.6-3.4-2.5-5.1c-0.5-0.9-0.9-1.9-1.4-2.9c-0.7-1.4-1.4-2.8-2-4.2
					c-0.9-2.3-1.6-4.6-1.7-7.1c0-0.9,0-1.9,0.1-2.8c0.1-1.2,0.5-2.2,0.9-3.3c0.5-1.6,1.4-3,2.6-4.2c1-1,2.2-1.8,3.6-2.5
					c1.5-0.7,3-1,4.6-1.1c1.2-0.1,2.4,0.1,3.6,0.4c0.6,0.2,1.2,0.3,1.8,0.6c2.3,1,4.2,2.6,5.5,4.7c1.2,1.9,1.6,3.9,1.6,6.1
					c0,0.3,0,0.7,0.1,1c1.2-0.9,2.3-1.9,3.6-2.6c1.4-0.7,2.9-1.2,4.6-1.4c1.5-0.2,3.1-0.1,4.6,0.4c2.6,0.7,4.7,2.1,6.3,4.1
					c0.7,0.9,1.3,2,1.7,3.1c0.5,1.3,0.7,2.7,0.6,4C475.5,263.6,475,265.3,474.1,266.9z"/>
			</g>
			<g>
				<path class="st39" d="M454.2,254.2c0-0.4-0.1-0.7-0.1-1c0-2.1-0.5-4.2-1.6-6.1c-1.3-2.1-3.1-3.7-5.5-4.7
					c-0.6-0.3-1.2-0.4-1.8-0.6c-1.2-0.3-2.4-0.5-3.6-0.4c-1.6,0.1-3.1,0.4-4.6,1.1c-1.4,0.6-2.6,1.4-3.6,2.5
					c-1.2,1.2-2.1,2.6-2.6,4.2c-0.4,1.1-0.8,2.2-0.9,3.3c-0.1,0.9-0.2,1.9-0.1,2.8c0.1,2.5,0.8,4.8,1.7,7.1c0.6,1.4,1.2,2.8,2,4.2
					c0.5,0.9,0.9,1.9,1.4,2.9c0.9,1.7,1.7,3.4,2.5,5.1c0.5,1.1,1,2.3,1.5,3.4c0.3,0.7,0.6,1.5,0.8,2.2c0.3,1.1,0.7,2.2,1,3.3
					c0.1,0.3,0.1,0.3,0.4,0.1c1.9-1.1,3.9-2,5.9-2.8c2.7-1.1,5.4-2,8.2-2.9c1.1-0.3,2.2-0.7,3.3-1.1c2.1-0.7,4.2-1.4,6.3-2.2
					c1.5-0.6,2.9-1.4,4.3-2.2c2.2-1.4,3.9-3.2,5.1-5.4c0.9-1.6,1.5-3.3,1.5-5.1c0-1.4-0.2-2.7-0.6-4c-0.4-1.1-1-2.1-1.7-3.1
					c-1.6-2-3.7-3.4-6.3-4.1c-1.5-0.4-3-0.5-4.6-0.4c-1.6,0.2-3.1,0.7-4.6,1.4C456.5,252.3,455.4,253.3,454.2,254.2z"/>
			</g>
		</g>
	</g>
	<g>
		<g id="XMLID_20_">
			<g>
				<path class="st17" d="M534.7,197.8c-0.5,2.4-1.6,4.6-3.2,6.6c-1,1.2-2.2,2.3-3.4,3.3c-1.7,1.4-3.5,2.6-5.3,3.8
					c-1,0.6-1.9,1.3-2.8,1.9c-2.4,1.5-4.8,3.2-7,5c-1.7,1.3-3.3,2.8-4.8,4.3c-0.2,0.2-0.3,0.2-0.4,0c-0.6-1-1.3-1.9-2-2.9
					c-0.5-0.7-0.9-1.3-1.4-1.9c-0.8-1-1.6-2-2.4-2.9c-1.3-1.4-2.6-2.8-4-4.2c-0.8-0.8-1.5-1.6-2.2-2.3c-1.1-1.1-2.2-2.3-3.2-3.5
					c-1.6-1.9-3-4-3.8-6.3c-0.3-0.9-0.5-1.8-0.7-2.7c-0.2-1.1-0.2-2.3-0.2-3.4c0-1.7,0.5-3.2,1.2-4.7c0.7-1.3,1.6-2.4,2.7-3.3
					c1.2-1,2.5-1.8,4-2.3c1.2-0.4,2.4-0.6,3.6-0.6c0.6,0,1.3,0,1.9,0.1c2.6,0.4,4.8,1.3,6.7,3c1.7,1.5,2.7,3.3,3.4,5.4
					c0.1,0.3,0.2,0.6,0.4,1c0.9-1.2,1.6-2.5,2.7-3.5c1.2-1.1,2.4-2,4-2.6c1.4-0.6,2.9-0.9,4.5-0.9c2.7,0,5.1,0.7,7.3,2.2
					c1,0.7,1.9,1.5,2.6,2.5c0.9,1.1,1.5,2.4,1.9,3.7C535.1,194.2,535.1,196,534.7,197.8z"/>
			</g>
			<g>
				<path class="st39" d="M511.8,191c-0.1-0.3-0.3-0.7-0.4-1c-0.7-2-1.7-3.9-3.4-5.4c-1.9-1.7-4.1-2.7-6.7-3
					c-0.6-0.1-1.3-0.1-1.9-0.1c-1.2,0-2.4,0.2-3.6,0.6c-1.5,0.5-2.9,1.3-4,2.3s-2,2.1-2.7,3.3c-0.8,1.5-1.2,3-1.2,4.7
					c0,1.2-0.1,2.3,0.2,3.4c0.2,0.9,0.4,1.8,0.7,2.7c0.9,2.3,2.3,4.4,3.8,6.3c1,1.2,2.1,2.4,3.2,3.5c0.8,0.8,1.5,1.6,2.2,2.3
					c1.4,1.4,2.7,2.8,4,4.2c0.9,0.9,1.6,1.9,2.4,2.9c0.5,0.6,1,1.3,1.4,1.9c0.7,1,1.3,1.9,2,2.9c0.2,0.2,0.2,0.3,0.4,0
					c1.5-1.6,3.1-3,4.8-4.3c2.3-1.8,4.6-3.4,7-5c1-0.6,1.9-1.3,2.8-1.9c1.8-1.2,3.6-2.4,5.3-3.8c1.2-1,2.4-2.1,3.4-3.3
					c1.6-2,2.7-4.2,3.2-6.6c0.3-1.8,0.4-3.6-0.1-5.3c-0.4-1.3-1-2.6-1.9-3.7c-0.7-1-1.6-1.8-2.6-2.5c-2.2-1.5-4.6-2.2-7.3-2.2
					c-1.5,0-3,0.3-4.5,0.9c-1.5,0.6-2.8,1.5-4,2.6C513.4,188.5,512.7,189.8,511.8,191z"/>
			</g>
		</g>
	</g>
	<g>
		<g id="XMLID_19_">
			<g>
				<path class="st17" d="M518.3,111.3c-0.7,2.4-2,4.5-3.8,6.3c-1.1,1.1-2.4,2.1-3.7,3c-1.8,1.2-3.7,2.3-5.6,3.4c-1,0.6-2,1.1-3,1.7
					c-2.6,1.4-5,2.8-7.4,4.4c-1.8,1.2-3.5,2.5-5.2,3.9c-0.2,0.2-0.3,0.2-0.4-0.1c-0.5-1-1.1-2-1.7-3c-0.4-0.7-0.8-1.4-1.3-2
					c-0.7-1-1.4-2.1-2.2-3.1c-1.2-1.5-2.3-3-3.6-4.5c-0.7-0.8-1.3-1.7-2-2.5c-1-1.2-2-2.4-2.8-3.7c-1.4-2.1-2.6-4.2-3.2-6.6
					c-0.2-0.9-0.4-1.8-0.5-2.7c-0.1-1.2,0-2.3,0.2-3.4c0.2-1.7,0.8-3.2,1.7-4.6c0.8-1.2,1.8-2.2,3-3.1c1.3-0.9,2.7-1.6,4.2-2
					c1.2-0.3,2.4-0.4,3.6-0.3c0.6,0,1.3,0.1,1.9,0.2c2.5,0.6,4.7,1.7,6.4,3.5c1.5,1.6,2.4,3.5,2.9,5.6c0.1,0.3,0.2,0.7,0.3,1
					c1-1.1,1.8-2.3,3-3.3s2.6-1.8,4.2-2.3c1.5-0.5,3-0.7,4.5-0.5c2.7,0.2,5,1.1,7.1,2.8c0.9,0.8,1.7,1.7,2.4,2.7
					c0.8,1.2,1.3,2.5,1.5,3.8C519,107.8,518.8,109.6,518.3,111.3z"/>
			</g>
			<g>
				<path class="st39" d="M496,102.8c-0.1-0.3-0.2-0.7-0.3-1c-0.5-2.1-1.4-4-2.9-5.6c-1.7-1.8-3.9-3-6.4-3.5
					c-0.6-0.1-1.3-0.2-1.9-0.2c-1.2-0.1-2.5,0-3.6,0.3c-1.5,0.4-3,1-4.2,2c-1.2,0.9-2.2,1.9-3,3.1c-0.9,1.4-1.5,2.9-1.7,4.6
					c-0.1,1.1-0.3,2.3-0.2,3.4c0.1,0.9,0.2,1.8,0.5,2.7c0.6,2.4,1.9,4.5,3.2,6.6c0.9,1.3,1.8,2.5,2.8,3.7c0.7,0.8,1.3,1.7,2,2.5
					c1.2,1.5,2.4,3,3.6,4.5c0.8,1,1.5,2,2.2,3.1c0.4,0.7,0.9,1.3,1.3,2c0.6,1,1.1,2,1.7,3c0.1,0.3,0.2,0.3,0.4,0.1
					c1.6-1.4,3.3-2.7,5.2-3.9c2.4-1.6,4.9-3.1,7.4-4.4c1-0.5,2-1.1,3-1.7c1.9-1.1,3.8-2.2,5.6-3.4c1.3-0.9,2.6-1.9,3.7-3
					c1.8-1.8,3.1-3.9,3.8-6.3c0.5-1.7,0.7-3.5,0.4-5.3c-0.3-1.4-0.8-2.6-1.5-3.8c-0.6-1-1.4-1.9-2.4-2.7c-2-1.7-4.4-2.6-7.1-2.8
					c-1.5-0.1-3.1,0.1-4.5,0.5c-1.6,0.5-2.9,1.3-4.2,2.3C497.8,100.5,497,101.6,496,102.8z"/>
			</g>
		</g>
	</g>
	<g>
		<g id="XMLID_18_">
			<g>
				<path class="st17" d="M317.4,182.2c0.9,2.3,1.1,4.8,0.7,7.2c-0.2,1.5-0.7,3-1.2,4.5c-0.7,2-1.7,3.9-2.6,5.8c-0.5,1-1,2-1.5,3
					c-1.3,2.5-2.4,5-3.5,7.6c-0.8,2-1.4,4-1.9,6c-0.1,0.3-0.1,0.3-0.4,0.2c-1.1-0.6-2.1-1.1-3.2-1.6c-0.7-0.4-1.5-0.7-2.3-1
					c-1.2-0.5-2.4-1-3.6-1.4c-1.9-0.6-3.7-1.3-5.6-1.8c-1.1-0.3-2.1-0.7-3.2-1c-1.5-0.5-3.1-1-4.6-1.6c-2.4-1-4.7-2.1-6.6-3.7
					c-0.7-0.6-1.4-1.3-2-2c-0.8-0.9-1.3-1.9-1.9-2.9c-0.8-1.5-1.3-3-1.4-4.7c-0.1-1.4,0.1-2.8,0.6-4.1c0.5-1.4,1.3-2.7,2.3-3.9
					c0.8-0.9,1.7-1.6,2.8-2.2c0.6-0.3,1.1-0.6,1.7-0.8c2.4-0.9,4.9-1.1,7.4-0.5c2.2,0.5,4.1,1.6,5.8,3.1c0.3,0.2,0.5,0.4,0.8,0.7
					c0.1-1.5,0.1-2.9,0.5-4.3c0.4-1.5,1.1-2.9,2.1-4.1c0.9-1.2,2.1-2.1,3.4-2.9c2.3-1.3,4.8-1.7,7.5-1.4c1.2,0.1,2.4,0.5,3.5,0.9
					c1.3,0.6,2.5,1.4,3.6,2.4C315.9,179,316.8,180.5,317.4,182.2z"/>
			</g>
			<g>
				<path class="st39" d="M293.9,187c-0.3-0.2-0.6-0.4-0.8-0.7c-1.7-1.5-3.5-2.6-5.8-3.1c-2.5-0.6-5-0.4-7.4,0.5
					c-0.6,0.2-1.1,0.5-1.7,0.8c-1.1,0.6-2,1.3-2.8,2.2c-1,1.1-1.8,2.4-2.3,3.9c-0.5,1.4-0.7,2.7-0.6,4.1c0.1,1.6,0.5,3.2,1.4,4.7
					c0.6,1,1.1,2,1.9,2.9c0.6,0.7,1.3,1.4,2,2c2,1.6,4.3,2.7,6.6,3.7c1.5,0.6,3,1.1,4.6,1.6c1.1,0.3,2.1,0.7,3.2,1
					c1.9,0.6,3.8,1.2,5.6,1.8c1.2,0.4,2.4,0.9,3.6,1.4c0.8,0.3,1.5,0.6,2.3,1c1.1,0.5,2.2,1.1,3.2,1.6c0.3,0.1,0.3,0.1,0.4-0.2
					c0.5-2,1.1-4,1.9-6c1-2.6,2.2-5.1,3.5-7.6c0.5-1,1-2,1.5-3c1-1.9,1.9-3.8,2.6-5.8c0.5-1.5,1-2.9,1.2-4.5
					c0.4-2.5,0.2-4.9-0.7-7.2c-0.6-1.7-1.5-3.3-2.9-4.6c-1-1-2.2-1.8-3.6-2.4c-1.1-0.5-2.3-0.8-3.5-0.9c-2.7-0.3-5.2,0.2-7.5,1.4
					c-1.3,0.7-2.5,1.7-3.4,2.9c-1,1.2-1.6,2.6-2.1,4.1C294,184.1,294,185.5,293.9,187z"/>
			</g>
		</g>
	</g>
	<g>
		<g id="XMLID_17_">
			<g>
				<path class="st17" d="M314.8,71.6c0.8,2.4,0.9,4.8,0.5,7.2c-0.3,1.5-0.8,3-1.4,4.4c-0.8,2-1.8,3.9-2.8,5.7c-0.5,1-1,2-1.6,2.9
					c-1.4,2.4-2.6,4.9-3.7,7.5c-0.8,1.9-1.5,3.9-2.1,5.9c-0.1,0.3-0.1,0.3-0.4,0.2c-1-0.6-2.1-1.2-3.2-1.7c-0.7-0.4-1.5-0.7-2.2-1
					c-1.2-0.5-2.4-1-3.6-1.5c-1.8-0.7-3.7-1.4-5.6-2c-1-0.3-2.1-0.7-3.1-1.1c-1.5-0.5-3.1-1-4.5-1.7c-2.3-1-4.6-2.2-6.5-3.9
					c-0.7-0.6-1.4-1.3-2-2.1c-0.8-0.9-1.3-1.9-1.8-3c-0.8-1.5-1.2-3.1-1.2-4.7c-0.1-1.4,0.2-2.8,0.7-4.1c0.5-1.4,1.4-2.7,2.4-3.8
					c0.8-0.9,1.8-1.6,2.9-2.1c0.6-0.3,1.1-0.6,1.7-0.8c2.4-0.8,4.9-0.9,7.4-0.3c2.2,0.6,4,1.7,5.7,3.2c0.3,0.2,0.5,0.5,0.8,0.7
					c0.2-1.5,0.2-2.9,0.6-4.2c0.5-1.5,1.2-2.8,2.2-4c1-1.1,2.2-2.1,3.5-2.8c2.4-1.2,4.9-1.6,7.5-1.2c1.2,0.2,2.4,0.5,3.5,1
					c1.3,0.6,2.5,1.4,3.5,2.4C313.4,68.3,314.2,69.9,314.8,71.6z"/>
			</g>
			<g>
				<path class="st39" d="M291.2,75.7c-0.3-0.2-0.6-0.5-0.8-0.7c-1.6-1.5-3.4-2.7-5.7-3.2c-2.5-0.6-5-0.5-7.4,0.3
					c-0.6,0.2-1.2,0.5-1.7,0.8c-1.1,0.6-2,1.3-2.9,2.1c-1.1,1.1-1.9,2.4-2.4,3.8c-0.5,1.3-0.8,2.7-0.7,4.1c0.1,1.6,0.4,3.2,1.2,4.7
					c0.6,1,1.1,2,1.8,3c0.6,0.7,1.2,1.4,2,2.1c1.9,1.7,4.2,2.9,6.5,3.9c1.5,0.7,3,1.2,4.5,1.7c1,0.3,2.1,0.8,3.1,1.1
					c1.9,0.6,3.7,1.3,5.6,2c1.2,0.5,2.4,1,3.6,1.5c0.8,0.3,1.5,0.7,2.2,1c1.1,0.5,2.1,1.1,3.2,1.7c0.3,0.1,0.3,0.1,0.4-0.2
					c0.5-2,1.2-4,2.1-5.9c1.1-2.6,2.3-5.1,3.7-7.5c0.5-1,1-2,1.6-2.9c1-1.9,2-3.8,2.8-5.7c0.6-1.4,1.1-2.9,1.4-4.4
					c0.5-2.5,0.3-4.9-0.5-7.2c-0.6-1.7-1.4-3.3-2.8-4.7c-1-1-2.2-1.8-3.5-2.4c-1.1-0.5-2.3-0.9-3.5-1c-2.7-0.4-5.2,0-7.5,1.2
					c-1.4,0.7-2.5,1.6-3.5,2.8c-1,1.2-1.7,2.6-2.2,4C291.3,72.9,291.3,74.3,291.2,75.7z"/>
			</g>
		</g>
	</g>
	<g id="XMLID_16_">
		<g>
			<path class="st2" d="M455.9,176.7l0.4,0.1c-3.9,67.8-63.3,86.1-93.3,79.3l1.5-0.5c-2.7-14.7-4.4-24.9-1.9-36.5v-0.2
				C397.3,225.2,438.8,210.8,455.9,176.7z"/>
		</g>
		<g>
			<path class="st42" d="M345.7,213.8c5.3,2.3,11,4,16.9,5c34.7,6.4,76.2-8,93.3-42.2c0.1-0.3,0.3-0.5,0.4-0.8"/>
			<path class="st42" d="M456.3,176.9c-3.9,67.8-63.3,86.1-93.3,79.3c-3-0.7-5.7-1.6-8-2.8"/>
			<path class="st42" d="M364.5,255.6c-2.7-14.7-4.4-24.9-1.9-36.5"/>
		</g>
	</g>
	<path class="st42" d="M441.4,181.4c7.4-5.7,16.6-7.4,28.2-3"/>
	<path class="st42" d="M375.3,265.9c5.5,4.4,10.5,7.5,22.9,0.2"/>
	<line class="st42" x1="382.1" y1="219" x2="386.5" y2="258.3"/>
	<line class="st42" x1="407.7" y1="216.2" x2="412.7" y2="249.3"/>
	<line class="st42" x1="426.7" y1="207.2" x2="431.2" y2="232.7"/>
	<line class="st42" x1="441.7" y1="197.3" x2="444" y2="216.7"/>
</g>
<g id="Layer_11">
	<circle class="st11" cx="517" cy="690" r="119"/>
	<path class="st39" d="M526.9,705.6"/>
	<g>
		<g id="XMLID_26_">
			<g>
				<path class="st17" d="M606.7,666.3c-1.6,4.9-4.3,9.1-7.9,12.7c-2.3,2.2-4.8,4.1-7.5,5.9c-3.6,2.4-7.4,4.5-11.3,6.5
					c-2,1-4,2.2-6,3.2c-5.1,2.5-10,5.4-14.8,8.4c-3.6,2.3-7.1,4.8-10.4,7.6c-0.5,0.4-0.6,0.4-0.8-0.2c-1-2.2-1.9-4.3-3-6.4
					c-0.7-1.5-1.5-2.9-2.3-4.3c-1.3-2.2-2.5-4.4-3.9-6.5c-2.1-3.2-4.2-6.4-6.5-9.6c-1.3-1.8-2.4-3.6-3.6-5.4
					c-1.8-2.6-3.6-5.2-5.1-7.9c-2.5-4.4-4.6-8.9-5.6-13.9c-0.4-1.9-0.6-3.8-0.6-5.7c-0.1-2.4,0.3-4.7,0.6-7c0.5-3.4,1.8-6.5,3.7-9.3
					c1.6-2.4,3.7-4.5,6-6.1c2.6-1.8,5.4-3,8.4-3.7c2.3-0.5,4.7-0.6,7.1-0.4c1.2,0.1,2.5,0.3,3.7,0.6c4.8,1.4,8.9,3.9,12.1,7.8
					c2.8,3.5,4.3,7.5,5.1,11.8c0.1,0.7,0.3,1.4,0.5,2.1c2-2.3,3.7-4.6,6.1-6.4c2.5-1.9,5.2-3.4,8.3-4.3c2.9-0.8,5.9-1.1,8.9-0.7
					c5.2,0.6,9.6,2.8,13.4,6.4c1.7,1.7,3.2,3.6,4.3,5.7c1.3,2.5,2.2,5.2,2.6,8C608.4,659.1,607.9,662.7,606.7,666.3z"/>
			</g>
			<g>
				<path class="st39" d="M564.4,646.6c-0.2-0.7-0.3-1.4-0.5-2.1c-0.8-4.3-2.2-8.4-5.1-11.8c-3.2-3.9-7.2-6.5-12.1-7.8
					c-1.2-0.3-2.4-0.5-3.7-0.6c-2.4-0.3-4.8-0.2-7.1,0.4c-3,0.7-5.8,1.8-8.4,3.7c-2.4,1.7-4.4,3.7-6,6.1c-1.9,2.8-3.1,5.9-3.7,9.3
					c-0.4,2.3-0.7,4.7-0.6,7c0.1,1.9,0.3,3.8,0.6,5.7c1,5,3.2,9.5,5.6,13.9c1.6,2.7,3.3,5.4,5.1,7.9c1.2,1.8,2.4,3.6,3.6,5.4
					c2.2,3.1,4.4,6.4,6.5,9.6c1.4,2.1,2.7,4.3,3.9,6.5c0.8,1.4,1.6,2.8,2.3,4.3c1,2.1,2,4.3,3,6.4c0.2,0.5,0.4,0.6,0.8,0.2
					c3.3-2.8,6.8-5.3,10.4-7.6c4.8-3,9.7-5.9,14.8-8.4c2-1,4-2.1,6-3.2c3.8-2,7.6-4.1,11.3-6.5c2.7-1.8,5.2-3.7,7.5-5.9
					c3.7-3.6,6.4-7.8,7.9-12.7c1.1-3.5,1.7-7.2,1.2-10.9c-0.4-2.8-1.2-5.5-2.6-8c-1.1-2.1-2.6-4-4.3-5.7c-3.8-3.6-8.2-5.8-13.4-6.4
					c-3-0.4-5.9-0.1-8.9,0.7c-3.1,0.8-5.8,2.3-8.3,4.3C568.2,641.9,566.4,644.3,564.4,646.6z"/>
			</g>
		</g>
	</g>
	<g>
		<g id="XMLID_25_">
			<g>
				<path class="st17" d="M523.2,644.3c-0.5,5.2-2.2,10-5.1,14.5c-1.8,2.8-3.9,5.2-6.2,7.6c-3.1,3.2-6.4,6.1-9.8,9
					c-1.8,1.5-3.5,3.1-5.3,4.5c-4.5,3.7-8.8,7.6-12.9,11.7c-3.1,3.1-6,6.4-8.7,10c-0.4,0.5-0.5,0.5-0.9,0c-1.4-1.9-2.9-3.9-4.4-5.8
					c-1-1.3-2.1-2.5-3.2-3.8c-1.8-1.9-3.5-3.8-5.4-5.6c-2.8-2.8-5.7-5.5-8.6-8.1c-1.7-1.5-3.2-3.1-4.8-4.6c-2.4-2.2-4.7-4.4-6.9-6.8
					c-3.5-3.8-6.6-7.9-8.7-12.6c-0.8-1.8-1.4-3.7-1.9-5.6c-0.6-2.4-0.8-4.8-0.9-7.2c-0.2-3.5,0.3-6.9,1.6-10.1
					c1.1-2.8,2.7-5.3,4.7-7.5c2.2-2.4,4.7-4.2,7.6-5.5c2.2-1,4.6-1.7,7-1.9c1.3-0.1,2.5-0.3,3.8-0.2c5.1,0.3,9.8,2,13.8,5.2
					c3.6,2.8,6,6.5,7.7,10.7c0.3,0.7,0.6,1.3,0.9,2c1.5-2.7,2.7-5.5,4.6-7.8c2.1-2.5,4.5-4.6,7.4-6.1c2.7-1.5,5.6-2.4,8.7-2.7
					c5.3-0.5,10.3,0.6,14.8,3.4c2.1,1.3,4,2.9,5.6,4.7c1.9,2.2,3.4,4.7,4.4,7.5C523.3,636.7,523.6,640.5,523.2,644.3z"/>
			</g>
			<g>
				<path class="st39" d="M476.5,634.1c-0.3-0.7-0.7-1.3-0.9-2c-1.7-4.2-4.1-7.9-7.7-10.7c-4.1-3.2-8.7-4.9-13.8-5.2
					c-1.3-0.1-2.5,0.1-3.8,0.2c-2.5,0.2-4.8,0.9-7,1.9c-2.9,1.4-5.4,3.2-7.6,5.5c-2,2.2-3.6,4.7-4.7,7.5c-1.2,3.2-1.8,6.6-1.6,10.1
					c0.2,2.4,0.3,4.8,0.9,7.2c0.5,1.9,1.1,3.8,1.9,5.6c2.1,4.7,5.3,8.8,8.7,12.6c2.2,2.4,4.5,4.6,6.9,6.8c1.6,1.5,3.2,3.1,4.8,4.6
					c2.9,2.6,5.8,5.4,8.6,8.1c1.9,1.8,3.6,3.7,5.4,5.6c1.1,1.2,2.2,2.5,3.2,3.8c1.5,1.9,3,3.8,4.4,5.8c0.4,0.5,0.5,0.5,0.9,0
					c2.7-3.5,5.6-6.8,8.7-10c4.1-4.1,8.4-8,12.9-11.7c1.8-1.5,3.5-3,5.3-4.5c3.4-2.9,6.7-5.8,9.8-9c2.3-2.4,4.4-4.8,6.2-7.6
					c2.9-4.4,4.6-9.2,5.1-14.5c0.4-3.8,0.1-7.5-1.2-11.2c-1-2.8-2.5-5.2-4.4-7.5c-1.6-1.9-3.5-3.5-5.6-4.7
					c-4.6-2.8-9.5-3.9-14.8-3.4c-3.1,0.3-6,1.2-8.7,2.7c-2.9,1.5-5.3,3.6-7.4,6.1C479.2,628.6,478,631.4,476.5,634.1z"/>
			</g>
		</g>
	</g>
	<g id="XMLID_24_">
		<g>
			<path class="st8" d="M566.8,729.5c3,62.2-98.5,126.8-109.9-8.4C456.9,725.3,506.5,741.8,566.8,729.5z"/>
		</g>
		<g>
			<path class="st39" d="M456.9,721.1c0,4.2,49.6,20.7,109.9,8.4c1-0.2,2.1-0.4,3.1-0.7"/>
			<path class="st39" d="M456.9,721.1c11.4,135.2,112.9,70.6,109.9,8.4v-0.1"/>
		</g>
	</g>
</g>
<g id="Layer_8">
	<g>
		<ellipse class="st11" cx="664" cy="481.8" rx="122" ry="122.8"/>
		<g id="XMLID_11_">
			<g>
				<path class="st35" d="M629.9,419.8c14.4,5,24.7,18.7,24.7,34.7c0,20.3-16.5,36.8-36.8,36.8c-19.2,0-35-14.7-36.7-33.5
					c3.5-0.9,6.7-2.5,10-3.9s6.5-2.9,9.5-4.9c0.5,0,1-0.1,1.4-0.4c1.8-1.3,3.4-3.1,5.6-3.6c0.9-0.2,1.4-0.8,1.7-1.4
					c0.9-0.2,1.5-0.8,1.8-1.6c4.8-3.5,9.3-7.5,12.3-12.5c0.1-0.1,0.3-0.3,0.4-0.5C625.9,426,628.1,423,629.9,419.8z"/>
			</g>
			<g>
				<path class="st4" d="M629.9,419.8c-1.8,3.2-4,6.2-6.1,9.2c-0.1,0.2-0.3,0.3-0.4,0.5c-3,5-7.5,9.1-12.3,12.5
					c-0.3,0.8-0.9,1.4-1.8,1.6c-0.3,0.6-0.8,1.2-1.7,1.4c-2.2,0.5-3.8,2.3-5.6,3.6c-0.4,0.3-0.9,0.4-1.4,0.4c-3,1.9-6.2,3.5-9.5,4.9
					s-6.6,3-10,3.9c1.7,18.8,17.4,33.5,36.7,33.5c20.3,0,36.8-16.5,36.8-36.8C654.6,438.4,644.2,424.8,629.9,419.8z"/>
			</g>
		</g>
		<circle cx="628" cy="459.1" r="14.1"/>
		<path class="st4" d="M564,458.4c71.9-2.4,45.2-53.5,93-42.9"/>
		<g id="XMLID_10_">
			<g>
				<path class="st35" d="M706.4,420.3c-14.4,5-24.7,18.7-24.7,34.7c0,20.3,16.5,36.8,36.8,36.8c19.2,0,35-14.7,36.7-33.5
					c-3.5-0.9-6.7-2.5-10-3.9s-6.5-2.9-9.5-4.9c-0.5,0-1-0.1-1.4-0.4c-1.8-1.3-3.4-3.1-5.6-3.6c-0.9-0.2-1.4-0.8-1.7-1.4
					c-0.9-0.2-1.5-0.8-1.8-1.6c-4.8-3.5-9.3-7.5-12.3-12.5c-0.1-0.1-0.3-0.3-0.4-0.5C710.4,426.5,708.2,423.5,706.4,420.3z"/>
			</g>
			<g>
				<path class="st4" d="M706.4,420.3c1.8,3.2,4,6.2,6.1,9.2c0.1,0.2,0.3,0.3,0.4,0.5c3,5,7.5,9.1,12.3,12.5
					c0.3,0.8,0.9,1.4,1.8,1.6c0.3,0.6,0.8,1.2,1.7,1.4c2.2,0.5,3.8,2.3,5.6,3.6c0.4,0.3,0.9,0.4,1.4,0.4c3,1.9,6.2,3.5,9.5,4.9
					s6.6,3,10,3.9c-1.7,18.8-17.4,33.5-36.7,33.5c-20.3,0-36.8-16.5-36.8-36.8C681.8,438.9,692.1,425.3,706.4,420.3z"/>
			</g>
		</g>
		<circle cx="710.9" cy="459.1" r="14.1"/>
		<path class="st4" d="M772.3,458.9c-71.9-2.4-45.2-53.5-93-42.9"/>
		<path class="st43" d="M597.4,555c-0.3-7.2,19.3-23.8,32.2-0.9"/>
		<path class="st43" d="M629.1,551.9c2.1,10.3,24.9,17,31.7-4.9"/>
		<path class="st43" d="M660.4,548.1c-0.3-6.4,18.1-28.3,32.2-3.3"/>
		<path class="st43" d="M692.2,543.8c2.1,10.3,24.9,17,31.7-4.9"/>
		<path class="st43" d="M722.9,541.6c-0.3-6.4,18.1-28.3,32.2-3.3"/>
		<g>
			<path class="st29" d="M659.3,482.1c-0.7-0.2-1.4-0.5-2-0.9c-0.3,0-0.7-0.1-1-0.2c-0.4,0-0.7,0-1.1,0c-0.3,0-0.6-0.1-0.8-0.1
				c-0.5,0.4-1.2,0.7-2,0.7c-0.4,0.3-0.8,0.5-1.4,0.4c-0.8,0-1.3-0.4-1.6-0.9c-0.4-0.3-0.8-0.6-1-1.1c-1-0.2-1.9-0.4-2.8-0.8
				c-1.2,0.3-2.4,0.5-3.7,0.5c-0.5,0.5-1.1,0.8-1.9,0.9c-0.3,0.2-0.6,0.4-1,0.5c-0.4,0.8-1.2,1.4-2.2,1.5c-0.7,0.7-1.6,1.3-2.7,1.6
				c-0.7,0.6-1.4,1-2.3,1.2c-0.4,0.2-0.8,0.4-1.3,0.5c-0.5,0.4-1.2,0.7-2,0.7c-0.1,0-0.2,0-0.3,0.1c-0.3,0.1-0.7,0.2-1,0.2
				c0,0,0,0-0.1,0c-0.5,0.4-1.2,0.6-2,0.5c-0.6,0-1.1-0.2-1.6-0.4c-0.7-0.3-1.3-0.9-1.6-1.5c0,0-0.1,0-0.1-0.1
				c-0.7-0.1-1.4-0.3-1.8-0.7c-0.3-0.1-0.5-0.2-0.8-0.3c-0.4-0.1-0.7-0.2-1.1-0.4c-0.4-0.1-0.9-0.2-1.3-0.4c-0.7-0.1-1.4-0.2-2-0.5
				l0,0c-0.6,0.1-1.3,0.2-2.1,0.2c-0.1,0-0.1,0-0.2,0c-0.3,0-0.5,0-0.8,0s-0.6,0.1-0.8,0.1c-0.5,0.3-1.1,0.4-1.8,0.4
				c-0.2,0-0.4,0-0.6-0.1c-0.9-0.1-1.6-0.5-2.1-1.1c-0.5-0.2-0.9-0.5-1.2-0.8c-0.3-0.1-0.6-0.1-0.9-0.2c-0.6-0.1-1.2-0.2-1.7-0.4
				c-0.2,0-0.5,0-0.7,0c-0.4,0-0.9-0.1-1.2-0.2c-0.1,0-0.3,0-0.4,0c-0.8,0-1.5-0.2-2.1-0.4c-0.1,0-0.3,0-0.4,0c-0.7,0-1.4-0.2-2-0.4
				c-4-0.9-7.4-3.1-9.8-6.2c-0.4-0.3-0.7-0.7-1-1.1l-0.2-0.2c-0.3-0.4-0.6-0.7-0.9-1.1c-0.2-0.2-0.4-0.4-0.7-0.6
				c-0.4-0.2-0.9-0.4-1.3-0.6c-0.2-0.1-0.4-0.2-0.6-0.3c-0.1,0-0.3,0-0.4,0c-0.2,0-0.5,0-0.7-0.1c-0.3,0-0.6,0-1,0
				c-0.4,0.9-0.8,1.8-1.3,2.7c0.1,0.4,0.2,0.8,0.2,1.3c0.3,0.3,0.7,0.6,1,0.9c1,1.1,1.9,2.3,2.7,3.6c1.2,0.5,2,1.3,2.7,2.2
				c0.8,0.4,1.6,0.8,2.3,1.3c2.7,1.4,5,3.5,6.6,6c2.3,3.2,3.5,7.1,3.5,11.3c0,0.6-0.1,1.2-0.1,1.8c0.1,0.9,0.2,1.9,0.2,2.8
				c0,0.3,0,0.6,0,0.9c0.2,0.6,0.3,1.2,0.3,1.8c0.1,0.5,0.1,1,0,1.4c0.4,1.5,0.7,3.1,0.7,4.8c0.3,0.2,0.6,0.4,0.9,0.6
				c0.4,0.1,0.7,0.2,1.1,0.3c0.2,0,0.5,0,0.7,0s0.3,0,0.5,0.1c0.2-0.4,0.5-0.8,0.8-1l0.1-0.1c0.1-0.3,0.3-0.6,0.5-0.9
				c-0.1-0.3-0.1-0.6-0.1-0.9c0-0.4,0-0.8,0-1.2c0-0.4,0.1-0.8,0.1-1.2l0,0c0-0.4,0.1-0.7,0.2-1c0-0.2,0-0.4,0.1-0.6
				c0-0.1,0-0.3,0-0.4c-0.1-0.4-0.1-0.8-0.2-1.2c0-0.2,0-0.4,0-0.6c-0.1-0.2-0.1-0.3-0.1-0.5c0-0.4-0.1-0.8-0.2-1.2
				c-0.1-0.4-0.1-0.8,0-1.2c-0.1-0.5-0.2-1.1-0.1-1.6c0-0.3,0.1-0.5,0.1-0.8c-0.1-0.7,0-1.4,0.3-1.9c0-0.1,0-0.1,0.1-0.2
				c-0.1-1.1,0.3-2.3,1.1-3.1c0.3-0.8,1-1.4,2.1-1.4c0.5,0,0.9,0.2,1.2,0.4c0.4,0.2,0.7,0.5,0.9,0.8c0.6,0.4,1.1,1.1,1.3,1.8
				c0.2,0.4,0.3,0.8,0.4,1.2c0.1,0.2,0.2,0.4,0.2,0.6c0.2,0.6,0.3,1.3,0.3,1.9c0.2,0.3,0.3,0.7,0.4,1c0.1,0.5,0.3,1,0.3,1.5
				c0.1,0.9,0,1.6,0,2.5v0.1c0.2,0.5,0.3,1.1,0.3,1.7c0,0.2,0,0.5-0.1,0.7c0,0.3,0,0.6,0,0.9c0.4,0.9,0.3,2-0.1,2.9
				c0,0.5,0,1.1-0.2,1.6c0.2,1.1-0.1,2.3-0.8,3.1c0.2,0.9,0,1.9-0.4,2.7c0,0.4-0.1,0.7-0.2,1.1c0.1,0.3,0.1,0.6,0.1,0.9
				c0,0.7-0.3,1.4-0.8,2c0,0.4,0,0.7-0.1,1.1c0.1,0.3,0.1,0.6,0.1,0.9l0,0c0,0.6-0.2,1.1-0.5,1.6c0,0.5-0.1,1-0.3,1.5
				c0.2,0.7,0.3,1.4,0.1,2c0.1,0.5,0.1,1,0,1.6c0.1,0.2,0.3,0.5,0.4,0.7c0.6,0.6,1.1,1.4,1.4,2.1c0.5,0.2,1,0.5,1.4,0.9
				c0.6-0.3,1.3-0.4,2.1-0.5c0.4-0.9,0.9-1.8,1.4-2.6c0-0.9,0.2-1.8,0.3-2.7c-0.1-0.3-0.1-0.6-0.1-0.9c-0.1-0.6-0.1-1.2,0.1-1.8
				c0-0.4,0-0.9,0-1.3c0-0.3,0-0.6,0-0.9c-0.1-0.2-0.1-0.4-0.2-0.7c-0.1-0.6-0.1-1.3-0.2-1.9c0-0.5,0.1-1,0.2-1.5c0-0.2,0-0.4,0-0.6
				c-0.1-0.4-0.1-0.8-0.1-1.2c-0.2-0.9-0.3-1.9-0.2-2.8c-0.1-0.6-0.1-1.3-0.1-1.9c-0.1-0.6-0.2-1.1-0.2-1.7
				c-0.1-0.4-0.2-0.9-0.2-1.4c0-0.1,0-0.2,0-0.3c-0.1-0.4-0.1-0.8,0-1.3c-0.1-0.4,0-0.8,0.1-1.2c0-0.3-0.1-0.7-0.1-1
				c-0.1-0.4-0.2-1-0.1-1.4c0-0.2-0.1-0.5,0-0.7l0,0c0-0.4,0.1-0.8,0.3-1.1c-0.4-3.4,1.4-7.1,5.1-8c0.8-0.2,1.6-0.3,2.5-0.3
				c0.2,0,0.4,0,0.6,0.1c0.4-0.1,0.8-0.1,1.2-0.1c-2.5,0,0.3-0.1,0.5-0.1c1-0.1,1.5,0,2.5,0.2s1.9,0.4,2.8,0.7
				c0.2,0.1,0.6,0.3,1,0.4c0.1,0,0.2,0,0.3,0c1.3,0,2.5,0.2,3.7,0.5c0.1,0,0.3,0.1,0.4,0.1c1.4-0.3,2.9-0.4,4.4-0.4
				c0.5,0,1,0.1,1.4,0.1c0.9-0.2,1.9-0.3,2.9-0.3c1.7-0.7,3.4-1.1,5.2-1.3c1.3-0.8,2.6-1.4,4.1-1.8c0.5-0.2,1.1-0.5,1.7-0.7
				c0.4-0.2,0.9-0.4,1.3-0.6c0.7-0.8,1.4-1.6,2.2-2.3c0.8-1.6,1.9-3,3.2-4.2C660.3,484.5,659.7,483.4,659.3,482.1z"/>
			<g>
				<path class="st29" d="M577.8,471.6c0-0.1,0.1-0.2,0.1-0.3c0.1-1,0.8-1.2,1.6-1.2c1.9-0.1,3.5,0.6,4.7,2.1c1,1.2,2.1,2.4,3.1,3.5
					c1.5,1.7,3.3,3,5.5,3.8c1,0.4,1.9,0.7,3,0.9c0.9,0.2,1.8,0.3,2.7,0.4c1.3,0.1,2.7,0.2,4,0.4c1.4,0.2,2.8,0.5,4,1.5
					c0.4,0.3,0.8,0.6,1.2,0.9c0.6,0.4,1.3,0.1,2-0.1c0.4-0.1,0.8-0.1,1.1-0.2c0.9-0.2,1.7,0,2.6,0.1c0.4,0,0.8,0,1.2,0
					c1.1,0,2.1,0.2,3.1,0.4c0.5,0.1,1,0.5,1.6,0.7c0.8,0.3,1.6,0.5,2.3,0.8c0.2,0.1,0.4,0.2,0.6,0.4c0.6,0.5,1.1,1,1.6,1.5
					c0.2,0.2,0.5,0.3,0.8,0.2c3.8-0.3,7.2-1.6,10.4-3.7c1.5-1,3-2,4.6-2.9c1.3-0.8,2.7-1.3,4.2-1.5c1-0.1,2,0.1,3,0.1
					c1.2,0.1,2,0.7,2.7,1.5c0.2,0.2,0.4,0.5,0.5,0.7c0.3,0.3,0.4,0.4,0.9,0.2c1.1-0.4,2.3-0.8,3.4-1c0.9-0.2,1.8-0.1,2.6,0
					c0.5,0.1,1,0.4,1.5,0.6c0.5,0.3,0.9,0.5,1.3,0.9c1.1,1,1.4,2.3,0.9,3.7c-0.5,1.7-1.3,3.2-2.7,4.3c-1.4,1.2-2.9,2.3-4.6,3.1
					c-2.1,1-4.3,1.7-6.6,2.2c-1.5,0.4-3.1,0.7-4.6,1c-1,0.2-1.9,0.2-2.9,0.3c-1.2,0.1-2.3,0.2-3.5,0.2c-1.1,0-2.2,0-3.3-0.1
					c-1.7-0.2-3.5-0.4-5.2-0.6c-2.1-0.3-4.3-0.8-6.4-0.9c-0.7,0-1.5,0-2.2,0c-1,0.1-1.6,0.8-2.3,1.4c-1,1.1-1.7,2.4-2,3.8
					c-0.4,1.9-0.7,3.9-0.6,5.9c0,0.8,0,1.6,0.1,2.3c0,0.5,0.1,1.1,0.1,1.6c0.1,1.2,0.1,2.5,0.2,3.7c0.1,1,0.1,2,0.2,3
					c0.1,0.9,0.1,1.8,0.2,2.7c0.1,1.1,0.1,2.3,0.1,3.4c0,2.1,0,4.2,0,6.2c0,1.4-0.4,2.8-1.1,4c-0.6,0.9-1.4,1.5-2.6,1.4
					c-0.9-0.1-1.5-0.6-2.1-1.3c-0.8-0.9-1.2-2-1.4-3.2c-0.2-1.9-0.2-3.8,0.2-5.7c0.3-1.3,0.6-2.5,0.9-3.8c0.3-1.3,0.6-2.7,0.8-4
					c0.2-0.9,0.4-1.8,0.5-2.6c0.2-1.5,0.3-3,0.4-4.5c0.1-1.2,0.1-2.5,0.1-3.7c0-1.1-0.1-2.1-0.2-3.2c-0.3-2.3-0.7-4.7-1.7-6.8
					c-0.6-1.2-1.4-2.2-2.7-2.7c-0.3-0.1-0.5-0.2-0.7-0.1c-0.3,0.2-0.8,0.3-1,0.6c-0.5,0.8-1,1.7-1.4,2.6c-0.6,1.3-0.7,2.8-0.7,4.2
					c0,0.9,0.2,1.9,0.2,2.8c0.1,0.8,0.1,1.7,0.2,2.5c0,0.5,0.1,1.1,0.1,1.6c0,0.9,0.1,1.9,0,2.8c-0.1,1.1-0.4,2.2-1.2,3.1
					c-1,1.2-2.9,1-3.7-0.3c-0.5-0.8-0.8-1.6-0.8-2.6c0-0.8-0.2-1.7-0.2-2.5c-0.1-1.2-0.1-2.4-0.1-3.6c0-1-0.1-2.1-0.1-3.1
					c-0.1-1.7-0.2-3.4-0.4-5.2c-0.4-2.6-1.1-5.1-2.4-7.3c-1.1-1.9-2.7-3.4-4.5-4.7c-1.9-1.3-3.9-2.4-5.9-3.7
					c-2.3-1.5-4.2-3.3-5.2-5.9c-0.3-0.7-0.4-1.5-0.6-2.2c0-0.1-0.1-0.3-0.1-0.4C577.8,472,577.8,471.8,577.8,471.6z M607.5,483.9
					c-0.2-0.2-0.3-0.3-0.4-0.4c-1.1-0.9-2.5-1.5-3.9-1.7s-2.8-0.3-4.2-0.4c-1.6-0.2-3.2-0.3-4.7-0.8c-3.1-0.9-5.7-2.7-7.8-5.1
					c-1-1.2-2-2.3-3-3.5c-0.9-1-2.1-1.6-3.4-1.6c-0.4,0-0.8,0.1-1,0.4c-0.3,0.5-0.4,1.1-0.2,1.7c0.5,1.9,1.6,3.4,3,4.7
					c0.5,0.5,1.1,0.8,1.5,1.3s0.9,0.8,1.4,1.1c0.8,0.5,1.6,1.1,2.3,1.6c1.6,1.1,3.2,2.1,4.5,3.5c3.5,3.7,5.4,8.1,5.9,13.2
					c0.2,1.5,0.1,3.1,0.2,4.6c0,1.7,0.1,3.3,0.1,5c0,1,0,1.9,0.1,2.9c0.1,0.7,0.1,1.4,0.3,2.1c0.2,0.8,1.1,1.4,2,1.5
					c0.9,0,1.3-0.5,1.7-1.2c0.6-1.2,0.6-2.5,0.6-3.8c0-0.9-0.1-1.8-0.2-2.7c-0.1-1-0.2-2-0.3-3s-0.2-2.1-0.1-3.1c0-1,0.2-2,0.4-2.9
					c0.3-1.6,1.1-2.9,2.3-4c0.2-0.2,0.5-0.4,0.8-0.4c0.6,0,1.1,0.1,1.6,0.4c1.4,0.6,2.3,1.8,2.9,3.2c1,2.6,1.4,5.4,1.5,8.2
					c0.1,1.1,0,2.2,0,3.3c0,3.1-0.5,6.1-1.1,9c-0.2,1-0.4,2-0.6,2.9c-0.3,1.3-0.6,2.6-0.9,3.9c-0.3,1.3-0.7,2.6-0.7,4
					c0,0.8,0,1.6,0.1,2.4c0.2,1.4,0.8,2.6,1.8,3.5c1.1,1,2.3,0.8,3.2-0.4c0.8-1.2,1.1-2.6,1.1-4c0.1-2.5,0.1-5,0.1-7.6
					c0-0.6,0.3-1.2-0.1-1.8v-0.1c-0.1-1.2-0.2-2.4-0.2-3.7c-0.1-1.6-0.2-3.2-0.3-4.8c-0.1-1.9-0.2-3.8-0.2-5.6c0-2.2,0.2-4.5,1-6.6
					c0.6-1.7,1.6-3,3.2-3.8c1.5-0.7,3.2-1.2,4.9-1.2c1.8,0,3.6,0.1,5.3,0.3c2.4,0.2,4.7,0.5,7.1,0.6c2.7,0.2,5.3,0.2,8-0.2
					c1.6-0.2,3.2-0.6,4.8-1c2.8-0.8,5.3-1.9,7.6-3.6c0.3-0.2,0.7-0.4,1-0.7c0.4-0.4,0.8-0.9,1.2-1.3c1.2-1.3,1.9-2.7,1.9-4.5
					c0-0.8-0.3-1.4-1-1.8c-0.3-0.2-0.7-0.3-1-0.4c-0.4-0.1-0.9-0.2-1.3-0.3c-1.1-0.2-2.2,0-3.2,0.2c-1.6,0.4-3.2,0.8-4.7,1.6
					c-0.9,0.5-1.8,0.9-2.8,1.3c-0.1,0-0.2,0-0.2,0.1c0-0.1,0.1-0.2,0.1-0.2c1.3-0.7,2.7-1.3,4-2c0.1,0,0.2-0.2,0.2-0.3
					c0-0.1-0.1-0.3-0.2-0.4c-0.8-0.7-1.5-1.6-2.8-1.6h-0.1c-1.4-0.3-2.9-0.3-4.3,0.2c-1.3,0.4-2.4,1.2-3.5,1.9
					c-1.9,1.2-3.8,2.5-5.8,3.5c-2.2,1.1-4.5,1.8-6.9,2c-0.5,0.1-0.9,0.1-1.4,0.2c0.2,0.4,0.4,0.8,0.6,1.1c0,0-0.1,0-0.1,0.1
					c-0.2-0.2-0.4-0.5-0.6-0.7c-1.6-1.8-3.5-3-5.8-3.7c-0.9-0.3-1.7-0.6-2.7-0.6c-2.1-0.1-4.3-0.2-6.4,0.1c-1.2,0.1-2.3,0.3-3.5,0.4
					c-0.3,0-0.7,0.1-1,0.1v-0.1C605.8,484.3,606.6,484.1,607.5,483.9z"/>
			</g>
		</g>
	</g>
</g>
<g id="Layer_12">
	<circle class="st11" cx="787" cy="282" r="118"/>
	<path class="st4" d="M772.9,221.1"/>
	<path class="st4" d="M697.3,238.6"/>
	<path class="st4" d="M739.4,308.5"/>
	<path class="st4" d="M710.6,244.7"/>
	<path class="st4" d="M743,293.1"/>
	<path class="st4" d="M764.1,228.3"/>
	<g id="XMLID_27_">
		<g>
			<path class="st2" d="M835.1,299.9v0.3c-22.3,3-34.3-0.2-44.3-8.3c8.9-14.9,10.7-38.8-3.7-70.3c3.9,4.6,54.6,15.7,71.2,7.1
				C876,268.3,859.9,297.4,835.1,299.9z"/>
			<path class="st2" d="M790.8,291.9c-4.7,7.9-11.3,13.2-18.6,15.9c-32.5,13.4-62.5-10.8-57.4-54.8c24.9,4.5,47.8-1.9,72-31.9
				c0,0.2,0.1,0.3,0.2,0.5C801.5,253.1,799.7,277,790.8,291.9z"/>
		</g>
		<g>
			<path class="st4" d="M714.9,252.9c24.9,4.5,47.8-1.9,72-31.9"/>
			<path class="st4" d="M772.2,307.8c-32.5,13.4-62.5-10.8-57.4-54.8"/>
			<path class="st4" d="M786.9,221.1c0.1,0.2,0.2,0.4,0.2,0.5c14.4,31.5,12.5,55.4,3.7,70.3c-4.7,7.9-11.3,13.2-18.6,15.9"/>
			<path class="st4" d="M786.9,221.1c0,0.2,0.1,0.3,0.2,0.5c3.9,4.6,54.6,15.7,71.2,7.1"/>
			<path class="st4" d="M858.3,228.7c17.7,39.6,1.6,68.7-23.2,71.2c-1.2,0.1-2.4,0.2-3.6,0.2"/>
			<path class="st4" d="M836,300.1c-0.3,0-0.6,0.1-0.9,0.1c-22.3,3-34.3-0.2-44.3-8.3c0,0-0.1,0-0.1-0.1"/>
		</g>
	</g>
	<path class="st4" d="M704,228.8c22.6,9.8,46.8,4.1,68.4-22.1"/>
	<path class="st4" d="M801.1,192.3c0,14.5,37,27.3,61.2,20.6"/>
	<path class="st4" d="M764.1,364.5c21.1-31.9,52.4-34.4,94.1-30.8"/>
	<path class="st4" d="M803.7,359.4c0-6,12.6-10.8,28.3-10.8"/>
	<circle class="st44" cx="829.4" cy="248.7" r="15.1"/>
	<circle class="st44" cx="755.2" cy="263.8" r="15.1"/>
</g>
<g id="Layer_14">
	<ellipse class="st11" cx="1083" cy="291" rx="123" ry="116"/>
	<path class="st4" d="M1077.6,235.1"/>
	<path class="st4" d="M998.7,252.3"/>
	<path class="st4" d="M1042.7,321"/>
	<path class="st4" d="M1012.6,258.4"/>
	<path class="st4" d="M1046.5,305.9"/>
	<path class="st4" d="M1068.5,242.2"/>
	<g id="XMLID_31_">
		<g>
			<path class="st16" d="M1065.5,227c28.4,34.1,19.8,65.8-8,80c-26.8,10.9-52.7-9.3-53-38.4l-0.4-1.7
				C1027.4,261.8,1048.6,245.8,1065.5,227z"/>
		</g>
		<g>
			<path class="st4" d="M981.5,268c7.7,0.9,15.3,0.4,22.7-1.1c23.3-5,44.4-21.1,61.4-39.9c3.4-3.8,6.6-7.7,9.7-11.7"/>
			<path class="st4" d="M1004.6,268.6c0.2,29.1,26.2,49.2,53,38.4"/>
			<path class="st4" d="M1064.9,226.2c0.2,0.3,0.4,0.5,0.7,0.8c28.4,34.1,19.8,65.8-8,80"/>
		</g>
	</g>
	<g id="XMLID_30_">
		<g>
			<path class="st2" d="M1179.7,248.3c11.9,34.2-18.6,60-46.8,53.8c-34.1-13.9-40-48.7-18-71.7c13.1,9.4,36.8,16.2,64.8,17.7V248.3z
				"/>
		</g>
		<g>
			<path class="st4" d="M1104,213.4c0,6.2,4,11.9,11,16.9c13.1,9.4,36.8,16.2,64.8,17.7c3.9,0.2,7.8,0.3,11.9,0.3"/>
			<path class="st4" d="M1132.9,302.1c-34.1-13.9-40-48.7-18-71.7c0.1-0.1,0.1-0.1,0.2-0.2"/>
			<path class="st4" d="M1179.7,248.3c11.9,34.2-18.6,60-46.8,53.8"/>
		</g>
	</g>
	<ellipse class="st44" cx="1064" cy="279.7" rx="7" ry="6.3"/>
	<ellipse class="st44" cx="1158.2" cy="282.5" rx="7" ry="6.3"/>
	<g id="XMLID_29_">
		<g>
			<path class="st45" d="M1149.7,367.8c9.5,21.2-28.8,3.2-55.5,2.7c-34.2-0.7-57.2,28.6-52.6,7.1c5.6-26.5,17.5-65.2,52.2-60.1
				C1130,322.7,1136.6,338.6,1149.7,367.8z"/>
		</g>
		<g>
			<path class="st32" d="M1149.7,367.8c9.5,21.2-28.8,3.2-55.5,2.7c-34.2-0.7-57.2,28.6-52.6,7.1c5.6-26.5,17.5-65.2,52.2-60.1
				C1130,322.7,1136.6,338.6,1149.7,367.8z"/>
		</g>
	</g>
</g>
<g id="Layer_16">
	<g id="XMLID_33_">
		<g>
			<ellipse class="st2" cx="636.8" cy="290.2" rx="45.7" ry="48"/>
			<path class="st0" d="M453.5,316.7c0-72.5,58.5-131.2,130.7-131.2s130.7,58.8,130.7,131.2S656.3,448,584.2,448
				S453.5,389.2,453.5,316.7z M485.9,290.2c0,26.5,20.5,48,45.7,48c25.2,0,45.7-21.5,45.7-48s-20.4-48-45.7-48
				C506.3,242.2,485.9,263.7,485.9,290.2z M682.5,290.2c0-26.5-20.5-48-45.7-48s-45.7,21.5-45.7,48s20.5,48,45.7,48
				S682.5,316.7,682.5,290.2z"/>
			<ellipse class="st2" cx="531.6" cy="290.2" rx="45.7" ry="48"/>
		</g>
		<g>
			<ellipse class="st4" cx="584.2" cy="316.7" rx="130.7" ry="131.2"/>
			<ellipse class="st4" cx="531.6" cy="290.2" rx="45.7" ry="48"/>
			<ellipse class="st4" cx="636.8" cy="290.2" rx="45.7" ry="48"/>
		</g>
	</g>
	<g id="XMLID_32_">
		<g>
			<path d="M604.8,336.8c0.5,4.1,26.6,46-2.1,96.3c-13.1,16-31.9,4.3-36.2-0.2c4.8-13.4,16-42.9,7.1-84.4
				C570.9,333.3,593.3,320.2,604.8,336.8z"/>
		</g>
		<g>
			<path class="st13" d="M573.6,348.4c8.9,41.5-2.4,71-7.1,84.4c-0.3,1-0.6,1.8-0.9,2.6"/>
			<path class="st13" d="M573.6,348.4c-2.7-15.1,19.6-28.2,31.2-11.7c0.7,0.9,1.3,2,1.9,3.1"/>
			<path class="st13" d="M601.3,435.4c0.5-0.8,0.9-1.6,1.4-2.4c28.7-50.3,2.6-92.2,2.1-96.3c0-0.2,0-0.3,0.2-0.3"/>
			<path class="st13" d="M565.6,431.5c0,0.3,0.3,0.7,0.9,1.4c4.3,4.5,23.1,16.3,36.2,0.2c0.2-0.2,0.4-0.5,0.6-0.7"/>
		</g>
	</g>
	<circle class="st15" cx="507.3" cy="294.8" r="11.6"/>
	<circle class="st15" cx="616" cy="297.1" r="11.6"/>
	<path class="st4" d="M485.7,324.5c0,15.8,20.7,28.5,46.2,28.5"/>
	<path class="st4" d="M636.9,352.5c12.7-2,30.3-7.6,48.6-32.7"/>
</g>
<g id="Layer_24">
	<g>
		<circle class="st11" cx="425.5" cy="524.5" r="148.5"/>
		<path class="st10" d="M467.7,407c5.9-0.9,35.7-5.7,56.1,22.2"/>
		<g>
			<path class="st2" d="M379.8,528.9c-29.3,0-53.1-23.8-53.1-53s23.8-53,53.1-53s53.1,24,53.1,53.4
				C432.9,505.4,409.1,528.9,379.8,528.9z"/>
			<path d="M379.8,426c27.6,0,50.1,22.6,50.1,50.4c0,13.3-5.2,25.8-14.6,35.1c-9.4,9.3-22,14.4-35.5,14.4c-27.6,0-50.1-22.4-50.1-50
				S352.2,426,379.8,426 M379.8,420c-31,0-56.1,25.1-56.1,56s25.1,56,56.1,56s56.1-24.6,56.1-55.5S410.8,420,379.8,420L379.8,420z"
				/>
		</g>
		<g>
			<path class="st2" d="M473.2,528.9c-29.3,0-53.1-23.8-53.1-53s23.8-53,53.1-53s53.1,24,53.1,53.4
				C526.3,505.4,502.4,528.9,473.2,528.9z"/>
			<path d="M473.2,426c27.6,0,50.1,22.6,50.1,50.4c0,13.3-5.2,25.8-14.6,35.1c-9.4,9.3-22,14.4-35.5,14.4c-27.6,0-50.1-22.4-50.1-50
				S445.5,426,473.2,426 M473.2,420c-31,0-56.1,25.1-56.1,56s25.1,56,56.1,56s56.1-24.6,56.1-55.5S504.1,420,473.2,420L473.2,420z"
				/>
		</g>
		<g>
			<circle class="st23" cx="383.9" cy="481.3" r="22"/>
			<ellipse class="st24" cx="374.1" cy="475.5" rx="6.5" ry="5.7"/>
		</g>
		<path class="st10" d="M325.2,422.4c4.3-4.2,25.9-25.2,58.6-14.1"/>
		<ellipse class="st2" cx="427.1" cy="475.5" rx="16.3" ry="27.7"/>
		<path class="st2" d="M540.2,545.4c-3.9,1.9-8.2,2.9-12.4,2.9c-0.3,0-0.5,0-0.8,0c-4.4,2.5-9.5,3.9-14.4,3.9
			c-2.4,0-4.6-0.3-6.8-0.8c-4.7,3-10.3,4.7-15.7,4.7c-2.6,0-5.1-0.3-7.4-1c-4.3,2.4-9.3,3.8-14.2,3.8c-1.9,0-3.7-0.2-5.5-0.5
			c-2.6,0.8-5.3,1.2-7.9,1.2c-1.7,0-3.3-0.2-4.9-0.4c-1.1,0.1-2.2,0.2-3.3,0.2c-1.1,0-2.1-0.1-3.1-0.2c-2.2,0.5-4.4,0.8-6.6,0.8
			c-1.3,0-2.6-0.1-3.8-0.3c-2.3,0.6-4.7,0.9-7,0.9c-1.6,0-3.2-0.1-4.8-0.4c-1.3,0.2-2.6,0.2-3.9,0.2h-0.4c-1.1,0-2.2-0.1-3.3-0.2
			c-2.2,0.5-4.5,0.8-6.7,0.8c-0.1,0-0.1,0-0.2,0c-1.6,0.3-3.2,0.4-4.8,0.4c-2.1,0-4.2-0.2-6.2-0.7c-0.3,0-0.7,0-1,0
			c-3,0-5.8-0.4-8.4-1.3c-1.5,0.3-3,0.4-4.6,0.4c-3,0-5.9-0.5-8.5-1.3c-0.1,0-0.2,0-0.3,0c-2.1,0-4.2-0.2-6.1-0.7
			c-1.1,0.1-2.3,0.2-3.4,0.2c-2.9,0-5.6-0.4-8.2-1.2c-0.8,0.1-1.6,0.1-2.4,0.1c-4.2,0-8.1-0.9-11.6-2.5c-0.9,0.1-1.7,0.1-2.6,0.1
			c-4.1,0-7.9-0.8-11.6-2.4c-5.7-0.3-10.8-2.3-15-5.3c-1.9-0.9-3.7-2-5.4-3.3c0.6,2.3,1,4.6,1.1,7.1c0,0.5,0,0.9,0,1.4
			c1.7,3.3,2.8,6.9,3.3,10.8c2,3.5,3.4,7.4,4,11.5c2,2.9,3.5,6.1,4.4,9.5c2.7,2.8,4.8,6.1,6.2,9.8c1.7,2.4,3.1,5,4.1,7.9
			c0.7,1.1,1.4,2.2,2,3.3c5.2,3.1,9.4,7.8,11.9,13.4c2.2,1.6,4.2,3.6,5.9,5.7c4.3,1.9,8.1,4.9,11,8.5c3.1,1.3,5.8,3.1,8.2,5.4
			c1.7,0.8,3.2,1.7,4.7,2.8c2.6,0.7,5,1.8,7.2,3.2c2.8,0.8,5.4,2.1,7.7,3.7c1.4,0.3,2.8,0.7,4.1,1.1c2.4,0.2,4.7,0.8,6.8,1.5
			c3.2,0.4,6.3,1.2,9,2.6c1-0.1,2-0.2,2.9-0.2c3.1,0,6,0.5,8.8,1.4c0.7-0.1,1.3-0.1,2-0.1c1,0,2.1,0.1,3.1,0.2
			c2.7-0.8,5.4-1.2,8.2-1.2c0.1,0,0.2,0,0.3,0c3.5-1.4,7.2-2.2,10.8-2.2c0.6,0,1.3,0,1.9,0.1c4.4-1.7,8.8-3.4,13.2-5.1
			c8-3,15.9-6.1,23.9-9c0.3-0.4,0.7-0.8,1-1.1c1.8-1.8,3.9-3.4,6.3-4.7c1.1-1.7,2.3-3.3,3.7-4.6c1.7-1.7,3.8-3.3,6-4.5
			c0.5-0.6,1-1.2,1.6-1.8c1.1-1.1,2.3-2.1,3.5-3c1.1-1.8,2.4-3.4,3.8-4.8c0.9-0.9,1.9-1.7,2.9-2.5c1.2-2.1,2.7-3.9,4.2-5.5l0,0
			c1.1-1.8,2.3-3.5,3.7-4.9c1.2-2.4,2.7-4.6,4.4-6.5c1.1-5,3.7-10.1,7-13.7c1.2-3.2,3-6.2,5-8.8c0.3-5.1,2.5-10.6,5.5-14.9
			c1-3.2,2.5-6.4,4.4-9.1C544.6,546.5,542.3,546.1,540.2,545.4z"/>
		<path class="st10" d="M305.9,542.4c0.7,8.7,105.4,35.4,238.8,2.3"/>
		<path class="st10" d="M306.6,542.4c27.8,130.9,187.9,161.3,238.8,2.3"/>
		<line class="st10" x1="326.6" y1="593.1" x2="378.5" y2="602.8"/>
		<line class="st10" x1="522.4" y1="594.4" x2="481.6" y2="603.4"/>
		<polygon class="st46" points="429.8,447 423.2,447 426.5,452.4 		"/>
		<polygon class="st46" points="423.2,505.7 429.8,505.7 426.5,500.3 		"/>
		<g>
			<circle class="st23" cx="463.8" cy="481.3" r="22"/>
			<ellipse class="st24" cx="454.1" cy="475.5" rx="6.5" ry="5.7"/>
		</g>
	</g>
</g>
<g id="Layer_2">
	<g id="XMLID_2_">
		<g>
			<path class="st0" d="M1301.3,141.9c-53.5,19.3-90.2,41.3-110.3,57.3c16.7,8.5,24.7,22.9,25.6,25.5c-1-2.3,16.8-12.3,44.6-25.6
				c14.4-6.8,31.5-14.6,50-22.5c1.7-0.7,3.5-1.5,5.3-2.3c-0.6,0.3-7.4-14-15-32L1301.3,141.9z M1158.2-27.1
				c74-31.6,160.2,4.7,192.6,81.1c32.3,76.4-1.5,164-75.5,195.6s-160.2-4.7-192.6-81.1C1050.4,92.1,1084.2,4.6,1158.2-27.1z
				 M1296,18.5l-98.1,43.3l-102.1,45c15.6,40.3,121.2,45.6,102.1-45C1227.7,106.4,1295.8,109.3,1296,18.5z"/>
			<path class="st2" d="M1197.8,61.8l98.1-43.3C1295.8,109.3,1227.7,106.4,1197.8,61.8L1197.8,61.8z M1265.2,56.8
				c-2.3-5.8-8.5-8.6-13.7-6.2c-5.2,2.3-7.6,8.9-5.2,14.6c2.3,5.8,8.5,8.5,13.7,6.2C1265.2,69.2,1267.6,62.6,1265.2,56.8z"/>
			<path class="st8" d="M1316.5,174.4c-1.8,0.8-3.5,1.5-5.3,2.3l0,0c-19.2-45.1-50.5,21.5-50.5,21.5l0.5,1
				c-27.8,13.2-45.6,23.2-44.6,25.6c-0.9-2.5-8.9-17-25.6-25.5c20.2-16,56.9-38,110.3-57.3l0.2,0.5
				C1309.2,160.4,1315.9,174.7,1316.5,174.4z"/>
			<path class="st3" d="M1251.5,50.6c5.2-2.3,11.4,0.5,13.7,6.2c2.4,5.8,0,12.3-5.2,14.6s-11.4-0.5-13.7-6.2
				C1243.9,59.5,1246.3,52.9,1251.5,50.6z"/>
			<path class="st17" d="M1311.2,176.6L1311.2,176.6c-18.5,8-35.6,15.7-50,22.5l-0.5-1C1260.8,198.1,1292,131.5,1311.2,176.6z"/>
			<path class="st2" d="M1197.8,61.8L1197.8,61.8c19.1,90.6-86.5,85.4-102.1,45L1197.8,61.8z M1166.5,101.9
				c-2.3-5.8-8.5-8.6-13.7-6.2c-5.2,2.3-7.6,8.9-5.2,14.6c2.3,5.8,8.5,8.5,13.7,6.2S1168.9,107.6,1166.5,101.9z"/>
			<path class="st3" d="M1152.8,95.6c5.2-2.3,11.4,0.5,13.7,6.2c2.4,5.8,0,12.3-5.2,14.6c-5.2,2.3-11.4-0.5-13.7-6.2
				C1145.2,104.5,1147.6,97.9,1152.8,95.6z"/>
		</g>
		<g>
			<path class="st42" d="M1350.8,54c32.3,76.4-1.5,164-75.5,195.6s-160.2-4.7-192.6-81.1c-32.3-76.4,1.5-164,75.5-195.6
				S1318.5-22.4,1350.8,54z"/>
			<polyline class="st47" points="1095.8,106.8 1197.8,61.8 1296,18.5 			"/>
			<path class="st47" d="M1095.8,106.8c15.6,40.3,121.2,45.6,102.1-45"/>
			<path class="st47" d="M1197.9,61.8c29.9,44.6,97.9,47.5,98.1-43.3"/>
			<path class="st42" d="M1174.9,214.7c2.8-3.9,8.2-9.2,16.1-15.5c20.2-16,56.9-38,110.3-57.3c2.6-0.9,5.2-1.8,7.8-2.8"/>
			<path class="st42" d="M1301.5,142.4c7.6,18,14.3,32.3,15,32"/>
			<path class="st42" d="M1216.6,224.7c-1-2.3,16.8-12.3,44.6-25.6c14.4-6.8,31.5-14.6,50-22.5c1.7-0.7,3.5-1.5,5.3-2.3"/>
			<path class="st42" d="M1190.4,198.9c0.2,0.1,0.4,0.2,0.6,0.3c16.7,8.5,24.7,22.9,25.6,25.5"/>
			<path class="st42" d="M1260.8,198.1c0,0,31.3-66.6,50.5-21.5"/>
			<path class="st42" d="M1166.5,101.9c2.4,5.8,0,12.3-5.2,14.6c-5.2,2.3-11.4-0.5-13.7-6.2c-2.3-5.8,0-12.3,5.2-14.6
				C1158,93.3,1164.2,96.1,1166.5,101.9z"/>
			<path class="st42" d="M1265.2,56.8c2.4,5.8,0,12.3-5.2,14.6s-11.4-0.5-13.7-6.2c-2.3-5.8,0-12.3,5.2-14.6
				C1256.7,48.3,1262.9,51.1,1265.2,56.8z"/>
		</g>
	</g>
</g>
<g id="Layer_5">
	<ellipse class="st7" cx="156.3" cy="462.4" rx="150.8" ry="154.9"/>
	<g id="XMLID_7_">
		<g>
			<path class="st9" d="M211.5,520.1c0.2-0.1,0.3-0.1,0.5-0.2c35.9-11.1,62.5,3.1,62.5,6.9v0.4c-10-0.8-39.5-7.6-74.4,7.7l0.2,0.5
				c-15.7,10.5-60.7,41.3-100,35.8c8.9-1.7,16.7-3.8,23.8-6c25.9-8.3,41.6-19.8,58.9-30.4c5.6-3.5,11.5-6.8,17.9-9.9
				C204.2,523.2,207.7,521.6,211.5,520.1z"/>
			<path class="st9" d="M173.6,515.7c-2.9-0.8-5.9-1.6-9.2-2.4c-9.3-2.3-20-4.5-31.7-6.1c-3.7-0.5-7.5-1-11.5-1.4
				c-6-0.6-12.2-1-18.7-1.2c-8.1-0.3-16.6-0.2-25.3,0.4l-0.1-0.1c24-15.5,58.4-5.4,134.3,15.3c-3.8,1.5-7.3,3.1-10.7,4.7l-0.1-0.2
				C196.8,523.2,187.3,519.5,173.6,515.7z"/>
			<path class="st2" d="M159.6,533c-17.3,19.2-28.2,5.2-32.9-2.8c-11.3,0-24-0.4-25.2-0.4c-10.6-13.7-0.4-24.2,1-25.2
				c6.4,0.2,12.7,0.6,18.7,1.2c2.5,6.5,6.6,8.8,11.5,1.4c11.8,1.6,22.5,3.8,31.7,6.1c0,2.2,0.3,16.5,9.2,2.4
				c13.7,3.8,23.2,7.5,27.1,9l0.1,0.2c-6.4,3.1-12.2,6.5-17.9,9.9l-0.2-0.3C170.8,534.5,160.9,533.9,159.6,533z"/>
			<path class="st2" d="M101.6,529.8c1.2,0,13.9,0.4,25.2,0.4c4.6,7.9,15.6,22,32.9,2.8c1.3,0.8,11.2,1.5,23.2,1.5l0.2,0.3
				c-17.3,10.6-33,22-58.9,30.4L124,565c-3.8,0.4-7.1-3-10-6.9c-21.3,16.7-27.9-3.9-30.9-9.4C82.7,545.7,73.6,526,101.6,529.8
				C101.5,529.8,101.5,529.8,101.6,529.8z"/>
			<path class="st9" d="M173.6,515.7c-8.9,14-9.1-0.2-9.2-2.4C167.7,514.1,170.7,514.9,173.6,515.7z"/>
			<path class="st9" d="M132.7,507.2c-4.9,7.5-8.9,5.2-11.5-1.4C125.2,506.2,129,506.7,132.7,507.2z"/>
			<path class="st9" d="M124,565l0.1,0.2c-7.1,2.3-14.9,4.3-23.8,6c-2.5-0.4-5.1-0.9-7.5-1.5C47,556.8,54.3,539.8,65.1,515l0.5,0.2
				c3.7-4.3,7.5-7.7,11.6-10.4l0.1,0.1c8.7-0.5,17.2-0.6,25.3-0.4c-1.4,1-11.6,11.5-1,25.2c-0.1,0-0.1,0-0.1,0
				c-27.9-3.9-18.8,15.9-18.3,18.9c2.9,5.6,9.6,26.1,30.9,9.4C116.9,562,120.3,565.4,124,565z"/>
		</g>
		<g>
			<path class="st48" d="M65.6,515.2c3.7-4.3,7.5-7.7,11.6-10.4c24-15.5,58.4-5.4,134.3,15.3c0.3,0.1,0.6,0.2,0.9,0.2"/>
			<path class="st48" d="M65.2,514.8c0,0.1-0.1,0.1-0.1,0.2c-10.8,24.8-18.1,41.8,27.6,54.7"/>
			<path class="st48" d="M200.3,535.4c-15.7,10.5-60.7,41.3-100,35.8c-2.5-0.4-5.1-0.9-7.5-1.5"/>
			<path class="st48" d="M276.6,527.2c-0.6,0-1.3,0-2.1-0.1c-10-0.8-39.5-7.6-74.4,7.7c-0.1,0-0.1,0.1-0.2,0.1"/>
			<path class="st48" d="M274.5,526.8c0-3.8-26.7-18-62.5-6.9"/>
			<path class="st48" d="M212,520c-0.2,0.1-0.3,0.1-0.5,0.2c-3.8,1.5-7.3,3.1-10.7,4.7c-6.4,3.1-12.2,6.5-17.9,9.9
				c-17.3,10.6-33,22-58.9,30.4c-7.1,2.3-14.9,4.3-23.8,6c-0.3,0.1-0.6,0.1-0.9,0.2"/>
			<path class="st48" d="M200.7,524.7c-3.9-1.4-13.4-5.1-27.1-9c-2.9-0.8-5.9-1.6-9.2-2.4c-9.3-2.3-20-4.5-31.7-6.1
				c-3.7-0.5-7.5-1-11.5-1.4c-6-0.6-12.2-1-18.7-1.2c-8.1-0.3-16.6-0.2-25.3,0.4"/>
			<path class="st48" d="M101.9,530.2c-0.1-0.1-0.2-0.3-0.3-0.4c-10.6-13.7-0.4-24.2,1-25.2c0.1-0.1,0.1-0.1,0.1-0.1"/>
			<path class="st48" d="M101.5,529.8L101.5,529.8c1.3,0,14,0.4,25.3,0.4c0.2,0,0.4,0,0.6,0"/>
			<path class="st48" d="M124.4,526c0.3,0.5,1.1,2.2,2.3,4.3c4.6,7.9,15.6,22,32.9,2.8c0.8-0.9,1.6-1.8,2.3-2.8"/>
			<path class="st48" d="M159.4,532.8c0,0.1,0.1,0.1,0.2,0.2c1.3,0.8,11.2,1.5,23.2,1.5"/>
			<path class="st48" d="M121.1,505.4c0.1,0.1,0.1,0.3,0.2,0.4c2.5,6.5,6.6,8.8,11.5,1.4c0,0,0-0.1,0.1-0.1"/>
			<path class="st48" d="M164.4,513.1c0,0,0,0.1,0,0.2c0,2.2,0.3,16.5,9.2,2.4l0,0"/>
			<path class="st48" d="M101.5,529.8c-27.9-3.9-18.8,15.9-18.3,18.9"/>
			<path class="st48" d="M114,558.1c-21.3,16.7-27.9-3.9-30.9-9.4"/>
			<path class="st48" d="M124,565c-3.8,0.4-7.1-3-10-6.9"/>
		</g>
	</g>
	<g id="XMLID_6_">
		<g>
			<path class="st49" d="M98.6,435.3c5.4,0,9.7,4.7,9.7,10.4c0,5.8-4.4,10.4-9.7,10.4c-5.4,0-9.7-4.7-9.7-10.4
				S93.2,435.3,98.6,435.3z"/>
			<ellipse class="st3" cx="209" cy="443.7" rx="9" ry="9.7"/>
			<path class="st50" d="M140.5,448.9c-28.5,4.2-46.9,21.8-76.4,7.9v-0.1c-6.5-4.3-6.5-23.1,8.4-46.3
				C92.8,420.4,111.3,446.4,140.5,448.9z M108.3,445.7c0-5.8-4.4-10.4-9.7-10.4c-5.4,0-9.7,4.7-9.7,10.4c0,5.8,4.4,10.4,9.7,10.4
				C104,456.2,108.3,451.5,108.3,445.7z"/>
			<path class="st50" d="M209,433.9c-5,0-9,4.4-9,9.7s4,9.7,9,9.7s9-4.4,9-9.7S214,433.9,209,433.9z M248.7,407.8
				c2.7,1.7,17.7,34.4,3.6,61.1c-33.5-0.3-54.2-19.4-72.1-20.3C192.5,442.3,215.2,407.1,248.7,407.8z"/>
		</g>
		<g>
			<path class="st48" d="M140.5,448.9c-29.2-2.4-47.7-28.5-67.9-38.4c-9.2-4.5-18.7-5.7-29.8,0"/>
			<path class="st48" d="M42.8,442.6c7.8,6.6,14.8,11.2,21.3,14.2c29.5,13.8,47.9-3.8,76.4-7.9"/>
			<path class="st48" d="M174.9,448.9c1.5,1,3.3,0.8,5.4-0.3c12.3-6.3,34.9-41.5,68.5-40.8c8.7,0.2,18.2,2.8,28.4,9"/>
			<path class="st48" d="M174.9,448.9c1.8-0.3,3.6-0.4,5.4-0.3c17.8,0.9,38.6,20,72.1,20.3c8,0.1,16.7-0.9,26.3-3.5"/>
			<path class="st48" d="M140.5,448.9c23.3-4.3-9.5-39.6,7.6-62.8"/>
			<path class="st48" d="M174.9,448.9c-15.7-0.4,2.7-38.1-3.1-47.1"/>
			<path class="st48" d="M125.2,423c-24,5.1-41.6-74.9-75.6-36.9"/>
			<path class="st48" d="M197.8,403.4c28.6-3.5,24.8-45.1,67.2-22.8"/>
			<path class="st48" d="M72.6,410.4c-14.9,23.1-14.9,42-8.4,46.3"/>
			<path class="st48" d="M252.3,468.9L252.3,468.9c14.1-26.8-0.9-59.4-3.6-61.1c-0.1,0-0.1-0.1-0.2-0.1"/>
			<path class="st48" d="M108.3,445.7c0,5.8-4.4,10.4-9.7,10.4c-5.4,0-9.7-4.7-9.7-10.4c0-5.8,4.4-10.4,9.7-10.4
				C104,435.3,108.3,440,108.3,445.7z"/>
			<ellipse class="st48" cx="209" cy="443.7" rx="9" ry="9.7"/>
		</g>
	</g>
</g>
</svg>
